extracted_out.vcd
$timescale 1ps $end
$scope module tbench_NV_NVDLA_partition_m $end
$scope module u_partition_ma $end
$var wire 1 0 n10465 $end
$var wire 1 1 n10464 $end
$var wire 1 2 n10854 $end
$var wire 1 3 n10483 $end
$upscope
$upscope
$enddefinitions $end
$dumpvars
#0
x3
x1
x0
x2
#2952036000
11
02
10
#2952036029
13
#2952038079
01
#2952038109
03
#2952046082
11
#2952046111
13
#2952062079
01
#2952062109
03
#2952066082
11
#2952066111
13
#2952070079
01
#2952070109
03
#2952074082
11
#2952074111
13
#2952106079
01
#2952106109
03
#2952114082
11
#2952114111
13
#2952126079
01
#2952126109
03
#2952130151
11
#2952130180
13
#2952130213
01
#2952130243
03
#2952142082
11
#2952142111
13
#2952150136
01
#2952150166
03
#2952150200
11
#2952150229
13
#2952170079
01
#2952170109
03
#2952182082
11
#2952182111
13
#2952186210
01
#2952186216
11
#2952186240
03
#2952186245
13
#2952194079
01
#2952194109
03
#2952202082
11
#2952202111
13
#2952214079
01
#2952214109
03
#2952218082
11
#2952218111
13
#2952226079
01
#2952226109
03
#2952234082
11
#2952234111
13
#2952234210
01
#2952234240
03
#2952242113
11
#2952242142
13
#2952242188
01
#2952242218
03
#2952246082
11
#2952246111
13
#2952254079
01
#2952254109
03
#2952258082
11
#2952258111
13
#2952262079
01
#2952262109
03
#2952274082
11
#2952274111
13
#2952286079
01
#2952286109
03
#2952298082
11
#2952298111
13
#2952310079
01
#2952310109
03
#2952318082
11
#2952318111
13
#2952318136
01
#2952318166
03
#2952318175
11
#2952318204
13
#2952330079
01
#2952330109
03
#2952334082
11
#2952334111
13
#2952358079
01
#2952358109
03
#2952358225
11
#2952358254
13
#2952362135
01
#2952362165
03
#2952366082
11
#2952366111
13
#2952366247
01
#2952366277
03
#2952370122
11
#2952370151
13
#2952382079
01
#2952382109
03
#2952394082
11
#2952394111
13
#2952402079
01
#2952402109
03
#2952406082
11
#2952406111
13
#2952422079
01
#2952422109
03
#2952434082
11
#2952434111
13
#2952438210
01
#2952438216
11
#2952438240
03
#2952438245
13
#2952446079
01
#2952446109
03
#2952454082
11
#2952454111
13
#2952466079
01
#2952466109
03
#2952474082
11
#2952474111
13
#2952490079
01
#2952490109
03
#2952494082
11
#2952494111
13
#2952498079
01
#2952498109
03
#2952502082
11
#2952502111
13
#2952506079
01
#2952506109
03
#2952510082
11
#2952510111
13
#2952522136
01
#2952522166
03
#2952522175
11
#2952522204
13
#2952534079
01
#2952534109
03
#2952538082
11
#2952538111
13
#2952554079
01
#2952554109
03
#2952562082
11
#2952562111
13
#2952574079
01
#2952574109
03
#2952594082
11
#2952594111
13
#2952610136
01
#2952610166
03
#2952610175
11
#2952610204
13
#2952630079
01
#2952630109
03
#2952654082
11
#2952654111
13
#2952670079
01
#2952670109
03
#2952674082
11
#2952674111
13
#2952702079
01
#2952702109
03
#2952702151
11
#2952702180
13
#2952702229
01
#2952702259
03
#2952706082
11
#2952706111
13
#2952710079
01
#2952710109
03
#2952718082
11
#2952718111
13
#2952722079
01
#2952722109
03
#2952726082
11
#2952726111
13
#2952742079
01
#2952742109
03
#2952746082
11
#2952746111
13
#2952750079
01
#2952750109
03
#2952754082
11
#2952754111
13
#2952758079
01
#2952758109
03
#2952762082
11
#2952762111
13
#2952774136
01
#2952774166
03
#2952774175
11
#2952774204
13
#2952786079
01
#2952786109
03
#2952794082
11
#2952794111
13
#2952806079
01
#2952806109
03
#2952810082
11
#2952810111
13
#2952814079
01
#2952814109
03
#2952814151
11
#2952814180
13
#2952814188
01
#2952814218
03
#2952822082
11
#2952822111
13
#2952826079
01
#2952826109
03
#2952830151
11
#2952830180
13
#2952830229
01
#2952830259
03
#2952834082
11
#2952834111
13
#2952834247
01
#2952834277
03
#2952838200
11
#2952838229
13
#2952842079
01
#2952842109
03
#2952850082
11
#2952850111
13
#2952862079
01
#2952862109
03
#2952870082
11
#2952870111
13
#2952882079
01
#2952882109
03
#2952886082
11
#2952886111
13
#2952890079
01
#2952890109
03
#2952910082
11
#2952910111
13
#2952922079
01
#2952922109
03
#2952922225
11
#2952922254
13
#2952926104
01
#2952926122
11
#2952926134
03
#2952926151
13
#2952930079
01
#2952930109
03
#2952934082
11
#2952934111
13
#2952938079
01
#2952938109
03
#2952946082
11
#2952946111
13
#2952954079
01
#2952954109
03
#2952958082
11
#2952958111
13
#2952962079
01
#2952962109
03
#2952970082
11
#2952970111
13
#2952978079
01
#2952978109
03
#2952982082
11
#2952982111
13
#2952994079
01
#2952994109
03
#2952998082
11
#2952998111
13
#2953014079
01
#2953014109
03
#2953018082
11
#2953018111
13
#2953042079
01
#2953042109
03
#2953046082
11
#2953046111
13
#2953058079
01
#2953058109
03
#2953062082
11
#2953062111
13
#2953066079
01
#2953066109
03
#2953066151
11
#2953066180
13
#2953066188
01
#2953066218
03
#2953074082
11
#2953074111
13
#2953078079
01
#2953078109
03
#2953082151
11
#2953082180
13
#2953082229
01
#2953082259
03
#2953086082
11
#2953086111
13
#2953086247
01
#2953086277
03
#2953090200
11
#2953090229
13
#2953094079
01
#2953094109
03
#2953102082
11
#2953102111
13
#2953110079
01
#2953110109
03
#2953110151
11
#2953110180
13
#2953110188
01
#2953110218
03
#2953114082
11
#2953114111
13
#2953118079
01
#2953118109
03
#2953126151
11
#2953126180
13
#2953126188
01
#2953126218
03
#2953130082
11
#2953130111
13
#2953138079
01
#2953138109
03
#2953138225
11
#2953138254
13
#2953142104
01
#2953142122
11
#2953142134
03
#2953142151
13
#2953150079
01
#2953150109
03
#2953150225
11
#2953150254
13
#2953154213
01
#2953154243
03
#2953162082
11
#2953162111
13
#2953166079
01
#2953166109
03
#2953170082
11
#2953170111
13
#2953182210
01
#2953182216
11
#2953182240
03
#2953182245
13
#2953190079
01
#2953190109
03
#2953190274
11
#2953190303
13
#2953194229
01
#2953194259
03
#2953198082
11
#2953198111
13
#2953214210
01
#2953214240
03
#2953218175
11
#2953218204
13
#2953222079
01
#2953222109
03
#2953230082
11
#2953230111
13
#2953246079
01
#2953246109
03
#2953254082
11
#2953254111
13
#2953262079
01
#2953262109
03
#2953266082
11
#2953266111
13
#2953274079
01
#2953274109
03
#2953282082
11
#2953282111
13
#2953290079
01
#2953290109
03
#2953294082
11
#2953294111
13
#2953298079
01
#2953298109
03
#2953302082
11
#2953302111
13
#2953334079
01
#2953334109
03
#2953342082
11
#2953342111
13
#2953342259
01
#2953342289
03
#2953346175
11
#2953346204
13
#2953354079
01
#2953354109
03
#2953358082
11
#2953358111
13
#2953370079
01
#2953370109
03
#2953378151
11
#2953378180
13
#2953378188
01
#2953378218
03
#2953382082
11
#2953382111
13
#2953390079
01
#2953390109
03
#2953390225
11
#2953390254
13
#2953394104
01
#2953394122
11
#2953394134
03
#2953394151
13
#2953402079
01
#2953402109
03
#2953402225
11
#2953402254
13
#2953406213
01
#2953406243
03
#2953414082
11
#2953414111
13
#2953418079
01
#2953418109
03
#2953422082
11
#2953422111
13
#2953430079
01
#2953430109
03
#2953434082
11
#2953434111
13
#2953438079
01
#2953438109
03
#2953446082
11
#2953446111
13
#2953454079
01
#2953454109
03
#2953458082
11
#2953458111
13
#2953478079
01
#2953478109
03
#2953482082
11
#2953482111
13
#2953510079
01
#2953510109
03
#2953526082
11
#2953526111
13
#2953530210
01
#2953530240
03
#2953538122
11
#2953538151
13
#2953542079
01
#2953542109
03
#2953550082
11
#2953550111
13
#2953550247
01
#2953550277
03
#2953554122
11
#2953554151
13
#2953566079
01
#2953566109
03
#2953574082
11
#2953574111
13
#2953582079
01
#2953582109
03
#2953586082
11
#2953586111
13
#2953590079
01
#2953590109
03
#2953590225
11
#2953590254
13
#2953594135
01
#2953594165
03
#2953610082
11
#2953610111
13
#2953610210
01
#2953610240
03
#2953614122
11
#2953614151
13
#2953618079
01
#2953618109
03
#2953622082
11
#2953622111
13
#2953626079
01
#2953626109
03
#2953650082
11
#2953650111
13
#2953654079
01
#2953654109
03
#2953666082
11
#2953666111
13
#2953690079
01
#2953690109
03
#2953698082
11
#2953698111
13
#2953706079
01
#2953706109
03
#2953710082
11
#2953710111
13
#2953730079
01
#2953730109
03
#2953734082
11
#2953734111
13
#2953750079
01
#2953750109
03
#2953754082
11
#2953754111
13
#2953758079
01
#2953758109
03
#2953762151
11
#2953762180
13
#2953762229
01
#2953762259
03
#2953766082
11
#2953766111
13
#2953766247
01
#2953766277
03
#2953770200
11
#2953770229
13
#2953774079
01
#2953774109
03
#2953782082
11
#2953782111
13
#2953790079
01
#2953790109
03
#2953794082
11
#2953794111
13
#2953814079
01
#2953814109
03
#2953818082
11
#2953818111
13
#2953822079
01
#2953822109
03
#2953842082
11
#2953842111
13
#2953858079
01
#2953858109
03
#2953862082
11
#2953862111
13
#2953866079
01
#2953866109
03
#2953870082
11
#2953870111
13
#2953886079
01
#2953886109
03
#2953890082
11
#2953890111
13
#2953894079
01
#2953894109
03
#2953902082
11
#2953902111
13
#2953910079
01
#2953910109
03
#2953926082
11
#2953926111
13
#2953946079
01
#2953946109
03
#2953950082
11
#2953950111
13
#2953974079
01
#2953974109
03
#2953978082
11
#2953978111
13
#2954010079
01
#2954010109
03
#2954014151
11
#2954014180
13
#2954014229
01
#2954014259
03
#2954018082
11
#2954018111
13
#2954018247
01
#2954018277
03
#2954022200
11
#2954022229
13
#2954026079
01
#2954026109
03
#2954034082
11
#2954034111
13
#2954042079
01
#2954042109
03
#2954046082
11
#2954046111
13
#2954066079
01
#2954066109
03
#2954070225
11
#2954070254
13
#2954074104
01
#2954074122
11
#2954074134
03
#2954074151
13
#2954082079
01
#2954082109
03
#2954082225
11
#2954082254
13
#2954086213
01
#2954086243
03
#2954094082
11
#2954094111
13
#2954098079
01
#2954098109
03
#2954102082
11
#2954102111
13
#2954114079
01
#2954114109
03
#2954130082
11
#2954130111
13
#2954146210
01
#2954146240
03
#2954150175
11
#2954150204
13
#2954154079
01
#2954154109
03
#2954162082
11
#2954162111
13
#2954170079
01
#2954170109
03
#2954182082
11
#2954182111
13
#2954190079
01
#2954190109
03
#2954194082
11
#2954194111
13
#2954206079
01
#2954206109
03
#2954214082
11
#2954214111
13
#2954222079
01
#2954222109
03
#2954226082
11
#2954226111
13
#2954230079
01
#2954230109
03
#2954234082
11
#2954234111
13
#2954238079
01
#2954238109
03
#2954246082
11
#2954246111
13
#2954246247
01
#2954246277
03
#2954250113
11
#2954250135
01
#2954250142
13
#2954250165
03
#2954254082
11
#2954254111
13
#2954258079
01
#2954258109
03
#2954262082
11
#2954262111
13
#2954266079
01
#2954266109
03
#2954274082
11
#2954274111
13
#2954274259
01
#2954274289
03
#2954278175
11
#2954278204
13
#2954286079
01
#2954286109
03
#2954290082
11
#2954290111
13
#2954302136
01
#2954302166
03
#2954306113
11
#2954306135
01
#2954306142
13
#2954306165
03
#2954318082
11
#2954318111
13
#2954334079
01
#2954334109
03
#2954334225
11
#2954334254
13
#2954338213
01
#2954338243
03
#2954346082
11
#2954346111
13
#2954350079
01
#2954350109
03
#2954354082
11
#2954354111
13
#2954366079
01
#2954366109
03
#2954382082
11
#2954382111
13
#2954394136
01
#2954394166
03
#2954394200
11
#2954394229
13
#2954398079
01
#2954398109
03
#2954402082
11
#2954402111
13
#2954422079
01
#2954422109
03
#2954426082
11
#2954426111
13
#2954430136
01
#2954430166
03
#2954430216
11
#2954430245
13
#2954454079
01
#2954454109
03
#2954470082
11
#2954470111
13
#2954490079
01
#2954490109
03
#2954490151
11
#2954490180
13
#2954490229
01
#2954490259
03
#2954494082
11
#2954494111
13
#2954498210
01
#2954498240
03
#2954502175
11
#2954502204
13
#2954510210
01
#2954510240
03
#2954514113
11
#2954514135
01
#2954514142
13
#2954514165
03
#2954518082
11
#2954518111
13
#2954522079
01
#2954522109
03
#2954526082
11
#2954526111
13
#2954550079
01
#2954550109
03
#2954554082
11
#2954554111
13
#2954562079
01
#2954562109
03
#2954566082
11
#2954566111
13
#2954578079
01
#2954578109
03
#2954606082
11
#2954606111
13
#2954614210
01
#2954614240
03
#2954622122
11
#2954622151
13
#2954638079
01
#2954638109
03
#2954642274
11
#2954642303
13
#2954646104
01
#2954646134
03
#2954646216
11
#2954646245
13
#2954650079
01
#2954650109
03
#2954654082
11
#2954654111
13
#2954662247
01
#2954662277
03
#2954666122
11
#2954666151
13
#2954686079
01
#2954686109
03
#2954690082
11
#2954690111
13
#2954702079
01
#2954702109
03
#2954714082
11
#2954714111
13
#2954722079
01
#2954722109
03
#2954730082
11
#2954730111
13
#2954730259
01
#2954730289
03
#2954734122
11
#2954734151
13
#2954738079
01
#2954738109
03
#2954742082
11
#2954742111
13
#2954750079
01
#2954750109
03
#2954762082
11
#2954762111
13
#2954778079
01
#2954778109
03
#2954786082
11
#2954786111
13
#2954790079
01
#2954790109
03
#2954794082
11
#2954794111
13
#2954798079
01
#2954798109
03
#2954826082
11
#2954826111
13
#2954834136
01
#2954834166
03
#2954838122
11
#2954838151
13
#2954846079
01
#2954846109
03
#2954854082
11
#2954854111
13
#2954854259
01
#2954854289
03
#2954858122
11
#2954858151
13
#2954862079
01
#2954862109
03
#2954866082
11
#2954866111
13
#2954886079
01
#2954886109
03
#2954890082
11
#2954890111
13
#2954910079
01
#2954910109
03
#2954922151
11
#2954922180
13
#2954922188
01
#2954922218
03
#2954926082
11
#2954926111
13
#2954930079
01
#2954930109
03
#2954942082
11
#2954942111
13
#2954946079
01
#2954946109
03
#2954954082
11
#2954954111
13
#2954966079
01
#2954966109
03
#2954978082
11
#2954978111
13
#2954982079
01
#2954982109
03
#2954986082
11
#2954986111
13
#2955010079
01
#2955010109
03
#2955014082
11
#2955014111
13
#2955030079
01
#2955030109
03
#2955046082
11
#2955046111
13
#2955066079
01
#2955066109
03
#2955086082
11
#2955086111
13
#2955094079
01
#2955094109
03
#2955094274
11
#2955094303
13
#2955098104
01
#2955098122
11
#2955098134
03
#2955098151
13
#2955102079
01
#2955102109
03
#2955106082
11
#2955106111
13
#2955118079
01
#2955118109
03
#2955138082
11
#2955138111
13
#2955154210
01
#2955154216
11
#2955154240
03
#2955154245
13
#2955158079
01
#2955158109
03
#2955170082
11
#2955170111
13
#2955186079
01
#2955186109
03
#2955190082
11
#2955190111
13
#2955202079
01
#2955202109
03
#2955206082
11
#2955206111
13
#2955210079
01
#2955210109
03
#2955214082
11
#2955214111
13
#2955234079
01
#2955234109
03
#2955238082
11
#2955238111
13
#2955250079
01
#2955250109
03
#2955250225
11
#2955250254
13
#2955258135
01
#2955258165
03
#2955262082
11
#2955262111
13
#2955262136
01
#2955262166
03
#2955262200
11
#2955262229
13
#2955266079
01
#2955266109
03
#2955270082
11
#2955270111
13
#2955282079
01
#2955282109
03
#2955306082
11
#2955306111
13
#2955310210
01
#2955310240
03
#2955314122
11
#2955314151
13
#2955326079
01
#2955326109
03
#2955330082
11
#2955330111
13
#2955334079
01
#2955334109
03
#2955338082
11
#2955338111
13
#2955346210
01
#2955346216
11
#2955346240
03
#2955346245
13
#2955358079
01
#2955358109
03
#2955362082
11
#2955362111
13
#2955378079
01
#2955378109
03
#2955386082
11
#2955386111
13
#2955390079
01
#2955390109
03
#2955398082
11
#2955398111
13
#2955402079
01
#2955402109
03
#2955406082
11
#2955406111
13
#2955414079
01
#2955414109
03
#2955414151
11
#2955414180
13
#2955414229
01
#2955414259
03
#2955418082
11
#2955418111
13
#2955426079
01
#2955426109
03
#2955430082
11
#2955430111
13
#2955446079
01
#2955446109
03
#2955454082
11
#2955454111
13
#2955458079
01
#2955458109
03
#2955466082
11
#2955466111
13
#2955474210
01
#2955474240
03
#2955482113
11
#2955482142
13
#2955482229
01
#2955482259
03
#2955486082
11
#2955486111
13
#2955502079
01
#2955502109
03
#2955522082
11
#2955522111
13
#2955526210
01
#2955526240
03
#2955530113
11
#2955530142
13
#2955530188
01
#2955530218
03
#2955534082
11
#2955534111
13
#2955538079
01
#2955538109
03
#2955558082
11
#2955558111
13
#2955562079
01
#2955562109
03
#2955566082
11
#2955566111
13
#2955578079
01
#2955578109
03
#2955590082
11
#2955590111
13
#2955606079
01
#2955606109
03
#2955610082
11
#2955610111
13
#2955614079
01
#2955614109
03
#2955614262
11
#2955614291
13
#2955618229
01
#2955618259
03
#2955626082
11
#2955626111
13
#2955638079
01
#2955638109
03
#2955646082
11
#2955646111
13
#2955650210
01
#2955650240
03
#2955654113
11
#2955654142
13
#2955654188
01
#2955654218
03
#2955658082
11
#2955658111
13
#2955662079
01
#2955662109
03
#2955670082
11
#2955670111
13
#2955674210
01
#2955674216
11
#2955674240
03
#2955674245
13
#2955690210
01
#2955690216
11
#2955690240
03
#2955690245
13
#2955698079
01
#2955698109
03
#2955702151
11
#2955702180
13
#2955706104
01
#2955706122
11
#2955706134
03
#2955706151
13
#2955710079
01
#2955710109
03
#2955726082
11
#2955726111
13
#2955734079
01
#2955734109
03
#2955738082
11
#2955738111
13
#2955750079
01
#2955750109
03
#2955754082
11
#2955754111
13
#2955762079
01
#2955762109
03
#2955766082
11
#2955766111
13
#2955782079
01
#2955782109
03
#2955786082
11
#2955786111
13
#2955794079
01
#2955794109
03
#2955794151
11
#2955794180
13
#2955794213
01
#2955794243
03
#2955798082
11
#2955798111
13
#2955814210
01
#2955814216
11
#2955814240
03
#2955814245
13
#2955822079
01
#2955822109
03
#2955826151
11
#2955826180
13
#2955826213
01
#2955826243
03
#2955842082
11
#2955842111
13
#2955850136
01
#2955850166
03
#2955850200
11
#2955850229
13
#2955874079
01
#2955874109
03
#2955878082
11
#2955878111
13
#2955890079
01
#2955890109
03
#2955894082
11
#2955894111
13
#2955906079
01
#2955906109
03
#2955914082
11
#2955914111
13
#2955918079
01
#2955918109
03
#2955926082
11
#2955926111
13
#2955926247
01
#2955926277
03
#2955930175
11
#2955930204
13
#2955934079
01
#2955934109
03
#2955938082
11
#2955938111
13
#2955958079
01
#2955958109
03
#2955958151
11
#2955958180
13
#2955958188
01
#2955958218
03
#2955966082
11
#2955966111
13
#2955974136
01
#2955974166
03
#2955974200
11
#2955974229
13
#2955986079
01
#2955986109
03
#2956002082
11
#2956002111
13
#2956006079
01
#2956006109
03
#2956010262
11
#2956010291
13
#2956014104
01
#2956014122
11
#2956014134
03
#2956014151
13
#2956018079
01
#2956018109
03
#2956026274
11
#2956026303
13
#2956030135
01
#2956030165
03
#2956042082
11
#2956042111
13
#2956050079
01
#2956050109
03
#2956058082
11
#2956058111
13
#2956066079
01
#2956066109
03
#2956074082
11
#2956074111
13
#2956078079
01
#2956078109
03
#2956090082
11
#2956090111
13
#2956094079
01
#2956094109
03
#2956106082
11
#2956106111
13
#2956114079
01
#2956114109
03
#2956126082
11
#2956126111
13
#2956130079
01
#2956130109
03
#2956134262
11
#2956134291
13
#2956138104
01
#2956138122
11
#2956138134
03
#2956138151
13
#2956142079
01
#2956142109
03
#2956154082
11
#2956154111
13
#2956166079
01
#2956166109
03
#2956166274
11
#2956166303
13
#2956170188
01
#2956170218
03
#2956174082
11
#2956174111
13
#2956178079
01
#2956178109
03
#2956182082
11
#2956182111
13
#2956186079
01
#2956186109
03
#2956198082
11
#2956198111
13
#2956218079
01
#2956218109
03
#2956218262
11
#2956218291
13
#2956222104
01
#2956222122
11
#2956222134
03
#2956222151
13
#2956226079
01
#2956226109
03
#2956234082
11
#2956234111
13
#2956238210
01
#2956238216
11
#2956238240
03
#2956238245
13
#2956242079
01
#2956242109
03
#2956246082
11
#2956246111
13
#2956246210
01
#2956246240
03
#2956250113
11
#2956250135
01
#2956250142
13
#2956250165
03
#2956266082
11
#2956266111
13
#2956290079
01
#2956290109
03
#2956290274
11
#2956290303
13
#2956294188
01
#2956294218
03
#2956298082
11
#2956298111
13
#2956302079
01
#2956302109
03
#2956306082
11
#2956306111
13
#2956314079
01
#2956314109
03
#2956334082
11
#2956334111
13
#2956338079
01
#2956338109
03
#2956342082
11
#2956342111
13
#2956350079
01
#2956350109
03
#2956362151
11
#2956362180
13
#2956362229
01
#2956362259
03
#2956366082
11
#2956366111
13
#2956386079
01
#2956386109
03
#2956394082
11
#2956394111
13
#2956406079
01
#2956406109
03
#2956410082
11
#2956410111
13
#2956430079
01
#2956430109
03
#2956434082
11
#2956434111
13
#2956438079
01
#2956438109
03
#2956458082
11
#2956458111
13
#2956462079
01
#2956462109
03
#2956478082
11
#2956478111
13
#2956482079
01
#2956482109
03
#2956482225
11
#2956482254
13
#2956486135
01
#2956486165
03
#2956494082
11
#2956494111
13
#2956502079
01
#2956502109
03
#2956522082
11
#2956522111
13
#2956530079
01
#2956530109
03
#2956538082
11
#2956538111
13
#2956542079
01
#2956542109
03
#2956546082
11
#2956546111
13
#2956550079
01
#2956550109
03
#2956554082
11
#2956554111
13
#2956558079
01
#2956558109
03
#2956562082
11
#2956562111
13
#2956566079
01
#2956566109
03
#2956570082
11
#2956570111
13
#2956590079
01
#2956590109
03
#2956602082
11
#2956602111
13
#2956606079
01
#2956606109
03
#2956606225
11
#2956606254
13
#2956610135
01
#2956610165
03
#2956618082
11
#2956618111
13
#2956630079
01
#2956630109
03
#2956634082
11
#2956634111
13
#2956638079
01
#2956638109
03
#2956646225
11
#2956646254
13
#2956650188
01
#2956650218
03
#2956654082
11
#2956654111
13
#2956670079
01
#2956670109
03
#2956682082
11
#2956682111
13
#2956694079
01
#2956694109
03
#2956710082
11
#2956710111
13
#2956722079
01
#2956722109
03
#2956726082
11
#2956726111
13
#2956762079
01
#2956762109
03
#2956770225
11
#2956770254
13
#2956774188
01
#2956774218
03
#2956778082
11
#2956778111
13
#2956794079
01
#2956794109
03
#2956798082
11
#2956798111
13
#2956802079
01
#2956802109
03
#2956806082
11
#2956806111
13
#2956810079
01
#2956810109
03
#2956814082
11
#2956814111
13
#2956818079
01
#2956818109
03
#2956830151
11
#2956830180
13
#2956830188
01
#2956830218
03
#2956834082
11
#2956834111
13
#2956842079
01
#2956842109
03
#2956846082
11
#2956846111
13
#2956854079
01
#2956854109
03
#2956862082
11
#2956862111
13
#2956870079
01
#2956870109
03
#2956874082
11
#2956874111
13
#2956882079
01
#2956882109
03
#2956902082
11
#2956902111
13
#2956910079
01
#2956910109
03
#2956922082
11
#2956922111
13
#2956926079
01
#2956926109
03
#2956930082
11
#2956930111
13
#2956934079
01
#2956934109
03
#2956938082
11
#2956938111
13
#2956942079
01
#2956942109
03
#2956950082
11
#2956950111
13
#2956954079
01
#2956954109
03
#2956958082
11
#2956958111
13
#2956970079
01
#2956970109
03
#2956974082
11
#2956974111
13
#2956978079
01
#2956978109
03
#2956982082
11
#2956982111
13
#2957018079
01
#2957018109
03
#2957034082
11
#2957034111
13
#2957038079
01
#2957038109
03
#2957046082
11
#2957046111
13
#2957050079
01
#2957050109
03
#2957062082
11
#2957062111
13
#2957078079
01
#2957078109
03
#2957082082
11
#2957082111
13
#2957094079
01
#2957094109
03
#2957098082
11
#2957098111
13
#2957102079
01
#2957102109
03
#2957110082
11
#2957110111
13
#2957118079
01
#2957118109
03
#2957134082
11
#2957134111
13
#2957138079
01
#2957138109
03
#2957146082
11
#2957146111
13
#2957190079
01
#2957190109
03
#2957194082
11
#2957194111
13
#2957198079
01
#2957198109
03
#2957210082
11
#2957210111
13
#2957218079
01
#2957218109
03
#2957222082
11
#2957222111
13
#2957242079
01
#2957242109
03
#2957258082
11
#2957258111
13
#2957262079
01
#2957262109
03
#2957266082
11
#2957266111
13
#2957270079
01
#2957270109
03
#2957286082
11
#2957286111
13
#2957286136
01
#2957286166
03
#2957286175
11
#2957286204
13
#2957290079
01
#2957290109
03
#2957294082
11
#2957294111
13
#2957298079
01
#2957298109
03
#2957302082
11
#2957302111
13
#2957314079
01
#2957314109
03
#2957326082
11
#2957326111
13
#2957330079
01
#2957330109
03
#2957346082
11
#2957346111
13
#2957350079
01
#2957350109
03
#2957354082
11
#2957354111
13
#2957358079
01
#2957358109
03
#2957362082
11
#2957362111
13
#2957366079
01
#2957366109
03
#2957378082
11
#2957378111
13
#2957390210
01
#2957390240
03
#2957394113
11
#2957394142
13
#2957394229
01
#2957394259
03
#2957410082
11
#2957410111
13
#2957410136
01
#2957410166
03
#2957410175
11
#2957410204
13
#2957414079
01
#2957414109
03
#2957418082
11
#2957418111
13
#2957422079
01
#2957422109
03
#2957426082
11
#2957426111
13
#2957430079
01
#2957430109
03
#2957454082
11
#2957454111
13
#2957458079
01
#2957458109
03
#2957466082
11
#2957466111
13
#2957474079
01
#2957474109
03
#2957478082
11
#2957478111
13
#2957494079
01
#2957494109
03
#2957498082
11
#2957498111
13
#2957498210
01
#2957498240
03
#2957502216
11
#2957502245
13
#2957518079
01
#2957518109
03
#2957534082
11
#2957534111
13
#2957562079
01
#2957562109
03
#2957578082
11
#2957578111
13
#2957582079
01
#2957582109
03
#2957586082
11
#2957586111
13
#2957590079
01
#2957590109
03
#2957594082
11
#2957594111
13
#2957598079
01
#2957598109
03
#2957602082
11
#2957602111
13
#2957606079
01
#2957606109
03
#2957614082
11
#2957614111
13
#2957622079
01
#2957622109
03
#2957626082
11
#2957626111
13
#2957650079
01
#2957650109
03
#2957662082
11
#2957662111
13
#2957666079
01
#2957666109
03
#2957674082
11
#2957674111
13
#2957694079
01
#2957694109
03
#2957706082
11
#2957706111
13
#2957722079
01
#2957722109
03
#2957726082
11
#2957726111
13
#2957730079
01
#2957730109
03
#2957738082
11
#2957738111
13
#2957750079
01
#2957750109
03
#2957762082
11
#2957762111
13
#2957766136
01
#2957766166
03
#2957766216
11
#2957766245
13
#2957770079
01
#2957770109
03
#2957774082
11
#2957774111
13
#2957778079
01
#2957778109
03
#2957786082
11
#2957786111
13
#2957790079
01
#2957790109
03
#2957794082
11
#2957794111
13
#2957798079
01
#2957798109
03
#2957802151
11
#2957802180
13
#2957802213
01
#2957802243
03
#2957806082
11
#2957806111
13
#2957822079
01
#2957822109
03
#2957826082
11
#2957826111
13
#2957838079
01
#2957838109
03
#2957846082
11
#2957846111
13
#2957870079
01
#2957870109
03
#2957886082
11
#2957886111
13
#2957890136
01
#2957890166
03
#2957890216
11
#2957890245
13
#2957894079
01
#2957894109
03
#2957898082
11
#2957898111
13
#2957902079
01
#2957902109
03
#2957914082
11
#2957914111
13
#2957926079
01
#2957926109
03
#2957934082
11
#2957934111
13
#2957938079
01
#2957938109
03
#2957942082
11
#2957942111
13
#2957974079
01
#2957974109
03
#2957986082
11
#2957986111
13
#2957986210
01
#2957986216
11
#2957986240
03
#2957986245
13
#2957990079
01
#2957990109
03
#2957994082
11
#2957994111
13
#2957998079
01
#2957998109
03
#2958010082
11
#2958010111
13
#2958018079
01
#2958018109
03
#2958022082
11
#2958022111
13
#2958030079
01
#2958030109
03
#2958038082
11
#2958038111
13
#2958050079
01
#2958050109
03
#2958058082
11
#2958058111
13
#2958062079
01
#2958062109
03
#2958070082
11
#2958070111
13
#2958078079
01
#2958078109
03
#2958082082
11
#2958082111
13
#2958086079
01
#2958086109
03
#2958094082
11
#2958094111
13
#2958102079
01
#2958102109
03
#2958110082
11
#2958110111
13
#2958118079
01
#2958118109
03
#2958126082
11
#2958126111
13
#2958130079
01
#2958130109
03
#2958134082
11
#2958134111
13
#2958170079
01
#2958170109
03
#2958170151
11
#2958170180
13
#2958170188
01
#2958170218
03
#2958186082
11
#2958186111
13
#2958190079
01
#2958190109
03
#2958194082
11
#2958194111
13
#2958202079
01
#2958202109
03
#2958206082
11
#2958206111
13
#2958210079
01
#2958210109
03
#2958218082
11
#2958218111
13
#2958230079
01
#2958230109
03
#2958242082
11
#2958242111
13
#2958242136
01
#2958242166
03
#2958242175
11
#2958242204
13
#2958246079
01
#2958246109
03
#2958254082
11
#2958254111
13
#2958258079
01
#2958258109
03
#2958270082
11
#2958270111
13
#2958274079
01
#2958274109
03
#2958278082
11
#2958278111
13
#2958294079
01
#2958294109
03
#2958302082
11
#2958302111
13
#2958306079
01
#2958306109
03
#2958310082
11
#2958310111
13
#2958310210
01
#2958310216
11
#2958310240
03
#2958310245
13
#2958326079
01
#2958326109
03
#2958330082
11
#2958330111
13
#2958342079
01
#2958342109
03
#2958346082
11
#2958346111
13
#2958362079
01
#2958362109
03
#2958366082
11
#2958366111
13
#2958366136
01
#2958366166
03
#2958366175
11
#2958366204
13
#2958370079
01
#2958370109
03
#2958378082
11
#2958378111
13
#2958382079
01
#2958382109
03
#2958386082
11
#2958386111
13
#2958390210
01
#2958390216
11
#2958390240
03
#2958390245
13
#2958398079
01
#2958398109
03
#2958406082
11
#2958406111
13
#2958418079
01
#2958418109
03
#2958422082
11
#2958422111
13
#2958426079
01
#2958426109
03
#2958430082
11
#2958430111
13
#2958434079
01
#2958434109
03
#2958446082
11
#2958446111
13
#2958470079
01
#2958470109
03
#2958474082
11
#2958474111
13
#2958482079
01
#2958482109
03
#2958486082
11
#2958486111
13
#2958490079
01
#2958490109
03
#2958502082
11
#2958502111
13
#2958510079
01
#2958510109
03
#2958514082
11
#2958514111
13
#2958522079
01
#2958522109
03
#2958530082
11
#2958530111
13
#2958542079
01
#2958542109
03
#2958546082
11
#2958546111
13
#2958550079
01
#2958550109
03
#2958554082
11
#2958554111
13
#2958566136
01
#2958566166
03
#2958566175
11
#2958566204
13
#2958578079
01
#2958578109
03
#2958582082
11
#2958582111
13
#2958586079
01
#2958586109
03
#2958606082
11
#2958606111
13
#2958614079
01
#2958614109
03
#2958634082
11
#2958634111
13
#2958642079
01
#2958642109
03
#2958646082
11
#2958646111
13
#2958650079
01
#2958650109
03
#2958650151
11
#2958650180
13
#2958650229
01
#2958650259
03
#2958654082
11
#2958654111
13
#2958658079
01
#2958658109
03
#2958666082
11
#2958666111
13
#2958670079
01
#2958670109
03
#2958674082
11
#2958674111
13
#2958674136
01
#2958674166
03
#2958674216
11
#2958674245
13
#2958690136
01
#2958690166
03
#2958690175
11
