custom-tests/test-cases/and/ans.vcd
$date
	Sat Mar 21 06:15:00 2020
$end
$version
	vzt2vcd
$end
$timescale 1ps $end
$scope module tbench_NV_NVDLA_partition_m $end
$scope module u_partition_ma $end
$var wire 1 A i1 $end
$var wire 1 B i2 $end
$var wire 1 C w $end
$var wire 1 D o1 $end
$upscope $end
$upscope $end
$enddefinitions $end
$dumpvars
#0
xA
xB
xC
xD
#100
1A
1B
#111
0C
#126
1D
#200
0A
#211
1C
#226
0D
#300
0B
#400
1A
zB
#411
xC
#426
xD
#500
1B
#513
0C
#528
1D
#600
0B
#613
1C
#628
0D
