custom-tests/test-cases/test/ans.vcd
$date
	Mon Jun  8 01:06:53 2020
$end
$version
	vzt2vcd
$end
$timescale 1ps $end
$scope module tbench_NV_NVDLA_partition_m $end
$scope module u_partition_ma $end
$var wire 1 f$! n17333 $end
$var wire 1 g$! n17334 $end
$var wire 1 h$! n17335 $end
$var wire 1 w$! n17350 $end
$var wire 1 y$! n17352 $end
$upscope $end
$upscope $end
$enddefinitions $end
$dumpvars
#0
xf$!
xg$!
xh$!
xw$!
xy$!
#2952036000
1y$!
0w$!
0h$!
1g$!
0f$!
#2952046090
0g$!
#2952046141
0y$!
#2952054088
1g$!
#2952054150
1y$!
#2952078090
0g$!
#2952078141
0y$!
#2952086170
1h$!
#2952086212
1y$!
#2952090098
0h$!
#2952090148
0y$!
#2952090169
1f$!
#2952090203
1y$!
#2952090210
0f$!
#2952090220
1g$!
#2952090233
0y$!
#2952090282
1y$!
#2952090283
0g$!
#2952090334
0y$!
#2952094090
1f$!
#2952094097
1h$!
#2952094124
1y$!
#2952094135
0y$!
#2952094141
1g$!
#2952094148
1w$!
#2952094203
1y$!
#2952094212
0f$!
#2952094235
0y$!
#2952094259
1f$!
#2952094293
1y$!
#2952102241
0f$!
#2952102264
0y$!
#2952106098
0h$!
#2952106146
0w$!
#2952106147
1y$!
#2952106158
0g$!
#2952106209
0y$!
#2952106241
1f$!
#2952106255
1g$!
#2952106275
1y$!
#2952106305
1w$!
#2952106311
0y$!
#2952106329
0g$!
#2952106330
0f$!
#2952106385
0w$!
#2952110097
1h$!
#2952110139
1y$!
#2952110240
1g$!
#2952110290
1w$!
#2952110296
0y$!
#2952114236
0g$!
#2952114286
1y$!
#2952114292
0w$!
#2952118090
1f$!
#2952118116
1w$!
#2952118130
0y$!
#2952118141
1g$!
#2952118203
1y$!
#2952118241
0f$!
#2952118264
0y$!
#2952122098
0h$!
#2952122146
0w$!
#2952122147
1y$!
#2952122259
1f$!
#2952122285
1w$!
#2952122299
0y$!
#2952126085
0f$!
#2952126109
0w$!
#2952126113
1y$!
#2952126158
0g$!
#2952126190
1f$!
#2952126209
0y$!
#2952126224
1y$!
#2952126241
1g$!
#2952126279
0f$!
#2952126291
1w$!
#2952126293
0g$!
#2952126297
0y$!
#2952126303
0w$!
#2952126307
1y$!
#2952126344
0y$!
#2952130257
1g$!
#2952130268
1f$!
#2952130294
1w$!
#2952130319
0g$!
#2952130369
1y$!
#2952130375
0w$!
#2952134085
0f$!
#2952134097
1h$!
#2952134108
0y$!
#2952134139
1y$!
#2952134188
1g$!
#2952134238
1w$!
#2952134244
0y$!
#2952138098
0h$!
#2952138146
0w$!
#2952138147
1y$!
#2952142097
1h$!
#2952142135
0y$!
#2952142148
1w$!
#2952142236
0g$!
#2952142286
1y$!
#2952142292
0w$!
#2952146098
0h$!
#2952146148
0y$!
#2952146169
1f$!
#2952146203
1y$!
#2952146220
1g$!
#2952146258
0f$!
#2952146270
1w$!
#2952146276
0y$!
#2952146282
0w$!
#2952146286
1y$!
#2952150205
0g$!
#2952150256
0y$!
#2952158088
1g$!
#2952158150
1y$!
#2952158167
0g$!
#2952158218
0y$!
#2952162123
1g$!
#2952162155
0g$!
#2952162185
1y$!
#2952162206
0y$!
#2952170088
1g$!
#2952170150
1y$!
#2952170294
1f$!
#2952170320
1w$!
#2952170334
0y$!
#2952174090
0g$!
#2952174130
1g$!
#2952174140
1y$!
#2952174146
0w$!
#2952174180
1w$!
#2952174186
0y$!
#2952178160
0f$!
#2952178184
0w$!
#2952178188
1y$!
#2952182152
1f$!
#2952182155
0g$!
#2952182178
1w$!
#2952182192
0y$!
#2952182205
1y$!
#2952182211
0w$!
#2952182272
0f$!
#2952182295
0y$!
#2952186088
1g$!
#2952186150
1y$!
#2952186167
0g$!
#2952186218
0y$!
#2952194294
1f$!
#2952194328
1y$!
#2952202160
0f$!
#2952202183
0y$!
#2952202185
1g$!
#2952202247
1y$!
#2952210090
0g$!
#2952210141
0y$!
#2952214088
1g$!
#2952214150
1y$!
#2952214169
0g$!
#2952214210
1g$!
#2952214220
0y$!
#2952214244
0g$!
#2952214272
1y$!
#2952214295
0y$!
#2952218061
1g$!
#2952218123
1y$!
#2952218138
1h$!
#2952218176
0y$!
#2952218189
1w$!
#2952218203
1f$!
#2952218237
1y$!
#2952218244
0h$!
#2952218254
0g$!
#2952218294
0y$!
#2952218298
0f$!
#2952218304
1y$!
#2952218310
0w$!
#2952218321
0y$!
#2952226209
1h$!
#2952226251
1y$!
#2952226257
1g$!
#2952226307
1w$!
#2952226313
0y$!
#2952230214
0h$!
#2952230262
0w$!
#2952230263
1y$!
0g$!
#2952230314
0y$!
#2952234096
1g$!
#2952234158
1y$!
#2952234244
0g$!
#2952234295
0y$!
#2952242138
1h$!
#2952242180
1y$!
#2952242244
0h$!
#2952242294
0y$!
#2952246061
1g$!
#2952246123
1y$!
#2952246263
0g$!
#2952246314
0y$!
#2952250274
1g$!
#2952250327
0g$!
#2952250336
1y$!
#2952250378
0y$!
#2952254156
1h$!
#2952254198
1y$!
#2952254246
1g$!
#2952254296
1w$!
#2952254302
0y$!
#2952258093
1f$!
#2952258127
1y$!
#2952258163
0h$!
#2952258213
0y$!
#2952258217
0f$!
#2952258241
0w$!
#2952258245
1y$!
#2952258249
0g$!
#2952258300
0y$!
#2952262138
1h$!
#2952262180
1y$!
#2952262228
1g$!
#2952262278
1w$!
#2952262284
0y$!
#2952270063
0g$!
#2952270113
1y$!
#2952270119
0w$!
#2952274061
1g$!
#2952274093
1f$!
#2952274111
1w$!
#2952274117
0y$!
#2952274127
1y$!
#2952274244
0h$!
#2952274263
0g$!
#2952274294
0y$!
#2952274298
0f$!
#2952274313
1y$!
#2952274319
0w$!
#2952274321
0y$!
#2952278117
1h$!
#2952278159
1y$!
#2952286096
1g$!
#2952286098
0h$!
#2952286227
0g$!
#2952286278
0y$!
#2952290061
1g$!
#2952290123
1y$!
#2952290249
0g$!
#2952290300
0y$!
#2952294096
1g$!
#2952294097
1h$!
#2952294148
1w$!
#2952294198
0g$!
#2952294226
1g$!
#2952294248
1y$!
#2952294254
0w$!
#2952294276
1w$!
#2952294282
0y$!
#2952298093
1f$!
#2952298099
0g$!
#2952298127
1y$!
#2952298150
0y$!
#2952302298
0f$!
#2952302322
0w$!
#2952302326
1y$!
#2952310096
1g$!
#2952310098
0h$!
#2952310244
0g$!
#2952310295
0y$!
#2952318061
1g$!
#2952318097
1h$!
#2952318123
1y$!
#2952318135
0y$!
#2952318148
1w$!
#2952318203
1f$!
#2952318237
1y$!
#2952318254
0g$!
#2952318298
0f$!
#2952318305
0y$!
#2952318322
0w$!
#2952318326
1y$!
#2952322098
0h$!
#2952322148
0y$!
#2952322257
1g$!
#2952322274
1f$!
#2952322300
1w$!
#2952330088
0f$!
#2952330112
0w$!
#2952330116
1y$!
#2952330249
0g$!
#2952330300
0y$!
#2952334097
1h$!
#2952334139
1y$!
#2952334203
1f$!
#2952334228
1g$!
#2952334229
1w$!
#2952334243
0y$!
#2952334263
0g$!
#2952334290
1y$!
#2952334298
0f$!
#2952334314
0y$!
#2952334322
0w$!
#2952334326
1y$!
#2952342096
0h$!
#2952342146
0y$!
#2952342154
1g$!
#2952342197
1h$!
#2952342216
1y$!
#2952342235
0y$!
#2952342248
1w$!
#2952350079
0g$!
#2952350090
1f$!
#2952350129
1y$!
#2952350130
0y$!
#2952354062
0f$!
#2952354086
0w$!
#2952354090
1y$!
#2952354137
0h$!
#2952354187
0y$!
#2952358255
1g$!
#2952358292
0g$!
#2952358317
1y$!
#2952358343
0y$!
#2952362059
1g$!
#2952362121
1y$!
#2952362126
1h$!
#2952362142
1f$!
#2952362155
0f$!
#2952362164
0y$!
#2952362176
1y$!
#2952362177
1w$!
#2952362178
0y$!
#2952362255
0g$!
#2952362305
1y$!
#2952362311
0w$!
#2952366109
1g$!
#2952366137
0h$!
#2952366159
1w$!
#2952366165
0y$!
#2952366185
0w$!
#2952366186
1y$!
#2952366236
0g$!
#2952366287
0y$!
#2952366389
1g$!
#2952366451
1y$!
#2952370096
0g$!
#2952370126
1h$!
#2952370147
0y$!
#2952370168
1y$!
#2952370253
1g$!
#2952370303
1w$!
#2952370309
0y$!
#2952382079
0g$!
#2952382090
1f$!
#2952382129
1y$!
#2952382130
0y$!
#2952382137
0h$!
#2952382185
0w$!
#2952382186
1y$!
#2952382255
1g$!
#2952382305
1w$!
#2952382311
0y$!
#2952394062
0f$!
#2952394086
0w$!
#2952394090
1y$!
#2952394096
0g$!
#2952394126
1h$!
#2952394147
0y$!
#2952394168
1y$!
#2952394269
1g$!
#2952394319
1w$!
#2952394325
0y$!
#2952402079
0g$!
#2952402129
1y$!
#2952402135
0w$!
#2952402255
1g$!
#2952402305
1w$!
#2952402311
0y$!
#2952406096
0g$!
#2952406138
0h$!
#2952406146
1y$!
#2952406152
0w$!
#2952406188
0y$!
#2952406199
1f$!
#2952406233
1y$!
#2952406272
0f$!
#2952406295
0y$!
#2952410088
1g$!
#2952410150
1y$!
#2952410167
0g$!
#2952410218
0y$!
#2952414123
1g$!
#2952414155
0g$!
#2952414185
1y$!
#2952414206
0y$!
#2952422088
1g$!
#2952422150
1y$!
#2952422294
1f$!
#2952422320
1w$!
#2952422334
0y$!
#2952426090
0g$!
#2952426130
1g$!
#2952426140
1y$!
#2952426146
0w$!
#2952426180
1w$!
#2952426186
0y$!
#2952430160
0f$!
#2952430184
0w$!
#2952430188
1y$!
#2952434152
1f$!
#2952434155
0g$!
#2952434178
1w$!
#2952434192
0y$!
#2952434205
1y$!
#2952434211
0w$!
#2952434272
0f$!
#2952434295
0y$!
#2952438088
1g$!
#2952438150
1y$!
#2952438167
0g$!
#2952438218
0y$!
#2952446294
1f$!
#2952446328
1y$!
#2952454160
0f$!
#2952454183
0y$!
#2952454185
1g$!
#2952454247
1y$!
#2952462090
0g$!
#2952462141
0y$!
#2952466088
1g$!
#2952466150
1y$!
#2952470090
0g$!
#2952470141
0y$!
#2952470194
1g$!
#2952470209
1f$!
#2952470235
1w$!
#2952474085
0f$!
#2952474109
0w$!
#2952474113
1y$!
#2952474236
0g$!
#2952474287
0y$!
#2952482130
1g$!
#2952482152
1f$!
#2952482178
1w$!
#2952486160
0f$!
#2952486184
0w$!
#2952486188
1y$!
#2952490155
0g$!
#2952490206
0y$!
#2952490255
1g$!
#2952490317
1y$!
#2952494236
0g$!
#2952494287
0y$!
#2952498255
1g$!
#2952498317
1y$!
#2952502236
0g$!
#2952502287
0y$!
#2952506090
1f$!
#2952506124
1y$!
#2952506130
1g$!
#2952506180
1w$!
#2952506186
0y$!
#2952506293
0g$!
#2952506343
1y$!
#2952506349
0w$!
#2952510085
0f$!
#2952510108
0y$!
#2952510185
1g$!
#2952510236
0g$!
#2952510247
1y$!
#2952510287
0y$!
#2952522188
1f$!
#2952522222
1y$!
#2952522249
1g$!
#2952522266
0g$!
#2952522299
1w$!
#2952522305
0y$!
#2952522316
1y$!
#2952522322
0w$!
#2952530085
0f$!
#2952530108
0y$!
#2952534090
1f$!
#2952534124
1y$!
#2952534147
0f$!
#2952534152
1h$!
#2952534170
0y$!
#2952534194
1y$!
#2952534294
1f$!
#2952534320
1w$!
#2952534334
0y$!
#2952538059
1g$!
#2952538062
0f$!
#2952542079
0g$!
#2952542088
1g$!
#2952542129
1y$!
#2952542135
0w$!
#2952542138
1w$!
#2952542144
0y$!
#2952546090
0g$!
#2952546140
1y$!
#2952546146
0w$!
#2952554098
0h$!
#2952554148
0y$!
#2952554250
1g$!
#2952554283
0g$!
#2952554294
1f$!
#2952554312
1y$!
#2952554328
0f$!
#2952554351
0y$!
#2952554375
1f$!
#2952554409
1y$!
#2952558088
1g$!
#2952558097
1h$!
#2952558138
1w$!
#2952562062
0f$!
#2952562085
0y$!
#2952562090
0g$!
#2952562140
1y$!
#2952562146
0w$!
#2952566059
1g$!
#2952566109
1w$!
#2952566115
0y$!
#2952574079
0g$!
#2952574088
1g$!
#2952574129
1y$!
#2952574135
0w$!
#2952574138
1w$!
#2952574144
0y$!
#2952578062
1f$!
#2952578096
1y$!
#2952578098
0h$!
#2952578148
0y$!
#2952582062
0f$!
#2952582086
0w$!
#2952582090
1y$!
0g$!
#2952582097
1h$!
#2952586059
1g$!
#2952586062
1f$!
#2952586098
0h$!
#2952586109
1w$!
#2952586126
0g$!
#2952586148
0y$!
#2952586176
1y$!
#2952586182
0w$!
#2952590097
1h$!
#2952590135
0y$!
#2952590148
1w$!
#2952594059
1g$!
#2952594062
0f$!
#2952598096
0h$!
#2952598144
0w$!
#2952598145
1y$!
#2952598168
0g$!
#2952598195
1h$!
#2952598219
0y$!
#2952598237
1y$!
#2952606137
0h$!
#2952606187
0y$!
#2952610126
1h$!
#2952610168
1y$!
#2952642137
0h$!
#2952642187
0y$!
#2952646126
1h$!
#2952646168
1y$!
#2952662157
0h$!
#2952662207
0y$!
#2952666130
1g$!
#2952666192
1y$!
#2952670138
1h$!
#2952670152
1f$!
#2952670155
0g$!
#2952670176
0y$!
#2952670186
1y$!
#2952670189
1w$!
#2952670206
0y$!
#2952670255
1g$!
#2952670317
1y$!
#2952674085
0f$!
#2952674108
0y$!
#2952674236
0g$!
#2952674286
1y$!
#2952674292
0w$!
#2952686152
1f$!
#2952686178
1w$!
#2952686192
0y$!
#2952686214
0h$!
#2952686262
0w$!
#2952686263
1y$!
#2952690085
0f$!
#2952690108
0y$!
#2952694090
1f$!
#2952694124
1y$!
#2952694248
1h$!
#2952694286
0y$!
#2952694299
1w$!
#2952698085
0f$!
#2952698109
0w$!
#2952698113
1y$!
#2952698142
0h$!
#2952698192
0y$!
#2952702130
1g$!
#2952702192
1y$!
#2952702374
0g$!
#2952702425
0y$!
#2952706269
1g$!
#2952706331
1y$!
#2952710156
1h$!
#2952710194
0y$!
#2952710207
1w$!
#2952710293
0g$!
#2952710343
1y$!
#2952710349
0w$!
#2952718185
1g$!
#2952718214
0h$!
#2952718235
1w$!
#2952718236
0g$!
#2952718241
0y$!
#2952718262
0w$!
#2952718263
1y$!
#2952718287
0y$!
#2952722255
1g$!
#2952722317
1y$!
#2952726138
1h$!
#2952726145
0g$!
#2952726174
1g$!
#2952726176
0y$!
#2952726189
1w$!
#2952726195
1y$!
#2952726201
0w$!
#2952726224
1w$!
#2952726230
0y$!
#2952726241
0g$!
#2952726244
0h$!
#2952726291
1y$!
#2952726294
0y$!
#2952726297
0w$!
#2952730096
1g$!
#2952730158
1y$!
#2952730209
1h$!
#2952730247
0y$!
#2952730260
1w$!
#2952734062
1f$!
#2952734096
1y$!
#2952734099
0g$!
#2952734109
1g$!
#2952734150
0y$!
#2952734171
1y$!
#2952734214
0h$!
#2952734248
1h$!
#2952734264
0y$!
#2952734290
1y$!
#2952738063
0g$!
#2952738114
0y$!
#2952742059
1g$!
#2952742062
0f$!
#2952742214
0h$!
#2952742248
1h$!
#2952742262
0w$!
#2952742263
1y$!
#2952742286
0y$!
#2952742299
1w$!
#2952746099
0g$!
#2952746149
1y$!
#2952746155
0w$!
#2952750244
0h$!
#2952750294
0y$!
#2952758062
1f$!
#2952758088
0f$!
#2952758096
1y$!
#2952758111
0y$!
#2952762059
1g$!
#2952762121
1y$!
#2952762209
1h$!
#2952762247
0y$!
#2952762260
1w$!
#2952766079
0g$!
#2952766129
1y$!
#2952766135
0w$!
#2952770059
1g$!
#2952770109
1w$!
#2952770115
0y$!
#2952770163
0h$!
#2952770211
0w$!
#2952770212
1y$!
#2952774099
0g$!
#2952774109
1g$!
#2952774138
1h$!
#2952774150
0y$!
#2952774171
1y$!
#2952774176
0y$!
#2952774189
1w$!
#2952782096
0g$!
#2952782146
1y$!
#2952782152
0w$!
#2952782244
0h$!
#2952782294
0y$!
#2952786109
1g$!
#2952786171
1y$!
#2952786209
1h$!
#2952786247
0y$!
#2952786260
1w$!
#2952790131
0h$!
#2952790179
0w$!
#2952790180
1y$!
#2952806063
0g$!
#2952806114
0y$!
#2952810061
1g$!
#2952810123
1y$!
#2952814063
0g$!
#2952814114
0y$!
#2952822061
1g$!
#2952822123
1y$!
#2952826063
0g$!
#2952826114
0y$!
#2952842061
1g$!
#2952842123
1y$!
#2952854121
0g$!
#2952854172
0y$!
#2952854220
1g$!
#2952854282
1y$!
#2952858138
1h$!
#2952858176
0y$!
#2952858189
1w$!
#2952858210
0g$!
#2952858244
0h$!
#2952858260
1y$!
#2952858266
0w$!
#2952858294
0y$!
#2952862209
1h$!
#2952862251
1y$!
#2952870214
0h$!
#2952870248
1h$!
#2952870264
0y$!
#2952870290
1y$!
#2952874244
0h$!
#2952874294
0y$!
#2952878248
1h$!
#2952878290
1y$!
#2952886244
0h$!
#2952886294
0y$!
#2952890209
1h$!
#2952890251
1y$!
#2952894141
1g$!
#2952894191
1w$!
#2952894197
0y$!
#2952898214
0h$!
#2952898262
0w$!
#2952898263
1y$!
#2952902209
1h$!
#2952902247
0y$!
#2952902260
1w$!
#2952910158
0g$!
#2952910208
1y$!
#2952910214
0w$!
0h$!
#2952910264
0y$!
#2952918116
1g$!
#2952918117
1h$!
#2952918154
0g$!
#2952918168
1w$!
#2952918182
1g$!
#2952918204
1y$!
#2952918210
0w$!
#2952918226
0g$!
#2952918232
1w$!
#2952918238
0y$!
#2952918276
1y$!
#2952918282
0w$!
#2952922098
0h$!
#2952922148
0y$!
#2952930097
1h$!
#2952930139
1y$!
#2952934098
0h$!
#2952934148
0y$!
#2952946097
1h$!
#2952946139
1y$!
#2952970098
0h$!
#2952970148
0y$!
#2952974097
1h$!
#2952974139
1y$!
#2952978098
0h$!
#2952978148
0y$!
#2952982161
1h$!
#2952982202
0h$!
#2952982203
1y$!
#2952982252
0y$!
#2952994220
1g$!
#2952994282
1y$!
#2952994283
0g$!
#2952994334
0y$!
#2953006141
1g$!
#2953006203
1y$!
#2953010158
0g$!
#2953010209
0y$!
#2953014141
1g$!
#2953014203
1y$!
#2953022158
0g$!
#2953022209
0y$!
#2953026141
1g$!
#2953026203
1y$!
#2953038158
0g$!
#2953038209
0y$!
#2953042141
1g$!
#2953042203
1y$!
#2953046158
0g$!
#2953046182
1g$!
#2953046209
0y$!
#2953046244
1y$!
#2953050244
0g$!
#2953050295
0y$!
#2953058217
1g$!
#2953058279
1y$!
#2953062244
0g$!
#2953062295
0y$!
#2953074226
1g$!
#2953074288
1y$!
#2953078244
0g$!
#2953078295
0y$!
#2953086212
1g$!
#2953086274
1y$!
#2953086316
0g$!
#2953086367
0y$!
#2953090235
1g$!
#2953090297
1y$!
#2953098244
0g$!
#2953098290
1g$!
#2953098295
0y$!
#2953098352
1y$!
#2953102198
0g$!
#2953102226
1g$!
#2953102249
0y$!
#2953102288
1y$!
#2953106244
0g$!
#2953106295
0y$!
#2953110145
1g$!
#2953110207
1y$!
#2953126063
0g$!
#2953126114
0y$!
#2953138061
1g$!
#2953138123
1y$!
#2953146063
0g$!
#2953146114
0y$!
#2953150061
1g$!
#2953150123
1y$!
#2953162063
0g$!
#2953162114
0y$!
#2953170061
1g$!
#2953170123
1y$!
#2953174063
0g$!
#2953174114
0y$!
#2953174156
1h$!
#2953174160
0h$!
#2953174198
1y$!
#2953174210
0y$!
1g$!
#2953174227
1h$!
#2953174278
1w$!
#2953178214
0h$!
#2953178262
0w$!
#2953178263
1y$!
#2953182244
0g$!
#2953182290
1g$!
#2953182295
0y$!
#2953182352
1y$!
#2953190316
0g$!
#2953190367
0y$!
#2953194290
1g$!
#2953194352
1y$!
#2953198138
1h$!
#2953198176
0y$!
#2953198189
1w$!
#2953198198
0g$!
#2953198248
1y$!
#2953198254
0w$!
#2953202244
0h$!
#2953202294
0y$!
#2953206226
1g$!
#2953206288
1y$!
#2953214244
0g$!
#2953214295
0y$!
#2953218138
1h$!
#2953218180
1y$!
#2953218244
0h$!
#2953218294
0y$!
#2953222248
1h$!
#2953222290
1y$!
#2953230214
0h$!
#2953230226
1g$!
#2953230264
0y$!
#2953230288
1y$!
#2953238117
1h$!
#2953238133
0h$!
#2953238155
0y$!
#2953238168
1w$!
#2953238181
0w$!
#2953238182
1y$!
#2953246079
0g$!
#2953246130
0y$!
#2953254059
1g$!
#2953254121
1y$!
#2953270079
0g$!
#2953270130
0y$!
#2953274059
1g$!
#2953274121
1y$!
#2953298079
0g$!
#2953298130
0y$!
#2953302059
1g$!
#2953302121
1y$!
#2953302154
0g$!
#2953302205
0y$!
#2953366145
1g$!
#2953366156
1h$!
#2953366207
1w$!
#2953366227
0g$!
#2953366277
1y$!
#2953366283
0w$!
#2953370062
1f$!
#2953370088
0f$!
1w$!
#2953370102
0y$!
#2953370112
0w$!
#2953370116
1y$!
#2953370137
0h$!
#2953370187
0y$!
#2953382126
1h$!
#2953382168
1y$!
#2953390061
1g$!
#2953390111
1w$!
#2953390117
0y$!
#2953390137
0h$!
#2953390185
0w$!
#2953390186
1y$!
#2953394096
0g$!
#2953394126
1h$!
#2953394147
0y$!
#2953394168
1y$!
#2953398137
0h$!
#2953398187
0y$!
#2953402061
1g$!
#2953402123
1y$!
#2953406126
1h$!
#2953406164
0y$!
#2953406177
1w$!
#2953414063
0g$!
#2953414093
1f$!
#2953414113
1y$!
#2953414133
0y$!
#2953418059
1g$!
#2953418062
0f$!
#2953418137
0h$!
#2953418185
0w$!
#2953418186
1y$!
#2953422099
0g$!
#2953422126
1h$!
#2953422150
0y$!
#2953422168
1y$!
#2953426062
1f$!
#2953426088
1w$!
#2953426096
1g$!
#2953426102
0y$!
#2953426137
0h$!
#2953426158
1y$!
#2953426187
0y$!
#2953430079
0g$!
#2953430088
0f$!
#2953430126
1h$!
#2953430135
0w$!
#2953430160
0h$!
#2953430168
1y$!
#2953430202
1g$!
#2953430210
0y$!
#2953430227
1h$!
#2953430238
0g$!
#2953430264
1y$!
#2953430265
0y$!
#2953430278
1w$!
#2953430288
1y$!
#2953430294
0w$!
#2953434123
1g$!
#2953434158
0g$!
#2953434173
1w$!
#2953434179
0y$!
#2953434208
1y$!
#2953434214
0w$!
0h$!
#2953434259
1f$!
#2953434264
0y$!
#2953434272
0f$!
#2953434293
1y$!
#2953434295
0y$!
#2953438220
1g$!
#2953438282
1y$!
#2953442283
0g$!
#2953442323
1f$!
#2953442334
0y$!
#2953442357
1y$!
#2953446141
1g$!
#2953446156
1h$!
#2953446191
1w$!
#2953446197
0y$!
#2953446198
1y$!
#2953446230
0f$!
#2953446253
0y$!
#2953446259
1f$!
#2953446272
0f$!
#2953446293
1y$!
#2953446295
0y$!
#2953450158
0g$!
#2953450208
1y$!
#2953450214
0w$!
0h$!
#2953450264
0y$!
#2953454141
1g$!
#2953454203
1y$!
#2953454286
0g$!
#2953454312
1g$!
#2953454323
1f$!
#2953454328
0f$!
#2953454337
0y$!
#2953454349
1w$!
#2953454352
0w$!
#2953454356
1y$!
#2953454375
1f$!
#2953454401
1w$!
#2953454415
0y$!
#2953458138
1h$!
#2953458158
0g$!
#2953458180
1y$!
#2953458209
0y$!
#2953458212
0f$!
#2953458236
0w$!
#2953458240
1y$!
#2953458259
1f$!
#2953458272
0f$!
#2953458285
1w$!
#2953458296
0w$!
#2953458299
0y$!
#2953458300
1y$!
#2953462244
0h$!
#2953462294
0y$!
#2953466209
1h$!
#2953466251
1y$!
#2953470088
1g$!
#2953470138
1w$!
#2953470144
0y$!
#2953470178
0g$!
#2953470214
0h$!
#2953470228
1y$!
#2953470234
0w$!
#2953470264
0y$!
#2953474123
1g$!
#2953474158
0g$!
#2953474185
1y$!
#2953474209
0y$!
#2953478294
1f$!
#2953478328
1y$!
#2953482220
1g$!
#2953482258
0f$!
#2953482270
1w$!
#2953482276
0y$!
#2953482282
0w$!
#2953482286
1y$!
#2953486126
0g$!
#2953486138
1h$!
#2953486177
0y$!
#2953486180
1y$!
#2953486240
1g$!
#2953486244
0h$!
#2953486290
1w$!
#2953486292
0w$!
#2953490090
0g$!
#2953490141
0y$!
#2953494116
1g$!
#2953494117
1h$!
#2953494168
1w$!
#2953510293
0g$!
#2953510343
1y$!
#2953510349
0w$!
#2953518090
1f$!
#2953518109
1g$!
#2953518116
1w$!
#2953518130
0y$!
#2953518171
1y$!
#2953522098
0h$!
#2953522148
0y$!
#2953526062
0f$!
#2953526086
0w$!
#2953526090
1y$!
#2953526096
0g$!
#2953526097
1h$!
#2953526269
1g$!
#2953526319
1w$!
#2953526325
0y$!
#2953530079
0g$!
#2953530098
0h$!
#2953530129
1y$!
#2953530135
0w$!
#2953530148
0y$!
#2953530317
1g$!
#2953530379
1y$!
#2953538096
0g$!
#2953538097
1h$!
#2953538253
1g$!
#2953538303
1w$!
#2953538309
0y$!
#2953542293
0g$!
#2953542343
1y$!
#2953542349
0w$!
#2953546098
0h$!
#2953546109
1g$!
#2953546148
0y$!
#2953546171
1y$!
#2953550236
0g$!
#2953550287
0y$!
#2953550338
1g$!
#2953550400
1y$!
#2953554096
0g$!
#2953554097
1h$!
#2953554253
1g$!
#2953554303
1w$!
#2953554309
0y$!
#2953558096
0h$!
#2953558144
0w$!
#2953558145
1y$!
#2953558195
1h$!
#2953558233
0y$!
#2953558246
1w$!
#2953566079
0g$!
#2953566129
1y$!
#2953566135
0w$!
#2953566137
0h$!
#2953566187
0y$!
#2953566250
1g$!
#2953566283
0g$!
#2953566294
1f$!
#2953566312
1y$!
#2953566328
0f$!
#2953566351
0y$!
#2953566375
1f$!
#2953566409
1y$!
#2953574062
0f$!
#2953574085
0y$!
#2953574126
1h$!
#2953574168
1y$!
#2953578137
0h$!
#2953578187
0y$!
#2953582088
1g$!
#2953582150
1y$!
#2953582294
1f$!
#2953582320
1w$!
#2953582334
0y$!
#2953586062
0f$!
#2953586086
0w$!
#2953586090
1y$!
#2953586096
0g$!
#2953586123
1g$!
#2953586126
1h$!
#2953586147
0y$!
#2953586177
1w$!
#2953590079
0g$!
#2953590088
1g$!
#2953590129
1y$!
#2953590135
0w$!
#2953590137
0h$!
#2953590138
1w$!
#2953590144
0y$!
#2953590185
0w$!
#2953590186
1y$!
#2953590271
0g$!
#2953590322
0y$!
#2953594059
1g$!
#2953594121
1y$!
#2953594126
1h$!
#2953594143
0g$!
#2953594164
0y$!
#2953594177
1w$!
#2953594193
1y$!
#2953594197
1g$!
#2953594199
0w$!
#2953594247
1w$!
#2953594253
0y$!
#2953598062
1f$!
#2953598079
0g$!
#2953598088
1g$!
#2953598096
1y$!
#2953598130
0y$!
#2953598150
1y$!
#2953606062
0f$!
#2953606085
0y$!
#2953606096
0g$!
#2953606123
1g$!
#2953606146
1y$!
#2953606152
0w$!
#2953606173
1w$!
#2953606179
0y$!
#2953610079
0g$!
#2953610088
1g$!
#2953610129
1y$!
#2953610135
0w$!
#2953610137
0h$!
#2953610138
1w$!
#2953610144
0y$!
#2953610185
0w$!
#2953610186
1y$!
#2953614096
0g$!
#2953614123
1g$!
#2953614126
1h$!
#2953614147
0y$!
#2953614177
1w$!
#2953618126
0g$!
#2953618137
0h$!
#2953618176
1y$!
#2953618182
0w$!
#2953618187
0y$!
#2953622123
1g$!
#2953622126
1h$!
#2953622157
0h$!
#2953622177
1w$!
#2953622205
0w$!
#2953622206
1y$!
#2953622224
1h$!
#2953622244
0h$!
#2953622262
0y$!
#2953622275
1w$!
#2953622292
0w$!
#2953622293
1y$!
#2953626079
0g$!
#2953626088
1g$!
#2953626130
0y$!
#2953626150
1y$!
#2953626209
1h$!
#2953626247
0y$!
#2953626260
1w$!
#2953626294
1f$!
#2953626328
1y$!
#2953630096
0g$!
#2953630123
1g$!
#2953630147
0y$!
#2953630163
0h$!
#2953630185
1y$!
#2953630213
0y$!
#2953638126
0g$!
#2953638138
1h$!
#2953638182
0w$!
#2953638189
1w$!
#2953650062
0f$!
#2953650086
0w$!
#2953650090
1y$!
#2953650123
1g$!
#2953650173
1w$!
#2953650179
0y$!
#2953650244
0h$!
#2953650292
0w$!
#2953650293
1y$!
#2953654248
1h$!
#2953654286
0y$!
#2953654299
1w$!
#2953658126
0g$!
#2953658176
1y$!
#2953658182
0w$!
#2953666244
0h$!
#2953666294
0y$!
#2953678123
1g$!
#2953678185
1y$!
#2953690293
0g$!
#2953690344
0y$!
#2953694062
1f$!
#2953694096
1y$!
#2953694210
0f$!
#2953694233
0y$!
#2953698109
1g$!
#2953698156
1h$!
#2953698171
1y$!
#2953698194
0y$!
#2953698207
1w$!
#2953698236
0g$!
#2953698286
1y$!
#2953698292
0w$!
#2953702059
1g$!
#2953702109
1w$!
#2953702115
0y$!
#2953702214
0h$!
#2953702262
0w$!
#2953702263
1y$!
#2953706079
0g$!
#2953706090
1f$!
#2953706213
0f$!
#2953706236
0y$!
#2953706255
1g$!
#2953706261
1f$!
#2953706287
1w$!
#2953706292
0g$!
#2953706336
1g$!
#2953706342
1y$!
#2953706348
0w$!
#2953706386
1w$!
#2953706392
0y$!
#2953710062
0f$!
#2953710086
0w$!
#2953710090
1y$!
#2953710096
0g$!
#2953710138
1h$!
#2953710147
0y$!
#2953710180
1y$!
#2953710269
1g$!
#2953710319
1w$!
#2953710325
0y$!
#2953714244
0h$!
#2953714292
0w$!
#2953714293
1y$!
#2953718209
1h$!
#2953718247
0y$!
#2953718260
1w$!
#2953722079
0g$!
#2953722129
1y$!
#2953722135
0w$!
#2953722214
0h$!
#2953722264
0y$!
#2953726059
1g$!
#2953726121
1y$!
#2953730293
0g$!
#2953730344
0y$!
#2953734269
1g$!
#2953734331
1y$!
#2953738062
1f$!
#2953738088
1w$!
#2953738102
0y$!
#2953738137
0f$!
#2953738138
1h$!
#2953738161
0w$!
#2953738165
1y$!
#2953738176
0y$!
#2953738189
1w$!
#2953738244
0h$!
#2953738292
0w$!
#2953738293
1y$!
#2953746079
0g$!
#2953746130
0y$!
#2953750059
1g$!
#2953750062
1f$!
#2953750085
0f$!
