custom-tests/test-cases/test/input.vcd
$date
	Mon Jun  8 01:06:53 2020
$end
$version
	vzt2vcd
$end
$timescale 1ps $end
$scope module tbench_NV_NVDLA_partition_m $end
$scope module u_partition_ma $end
$var wire 1 f$! n17333 $end
$var wire 1 g$! n17334 $end
$var wire 1 h$! n17335 $end
$upscope $end
$upscope $end
$enddefinitions $end
$dumpvars
#0
xf$!
xg$!
xh$!
#2952036000
0h$!
1g$!
0f$!
#2952046090
0g$!
#2952054088
1g$!
#2952078090
0g$!
#2952086170
1h$!
#2952090098
0h$!
#2952090169
1f$!
#2952090210
0f$!
#2952090220
1g$!
#2952090283
0g$!
#2952094090
1f$!
#2952094097
1h$!
#2952094141
1g$!
#2952094212
0f$!
#2952094259
1f$!
#2952102241
0f$!
#2952106098
0h$!
#2952106158
0g$!
#2952106241
1f$!
#2952106255
1g$!
#2952106329
0g$!
#2952106330
0f$!
#2952110097
1h$!
#2952110240
1g$!
#2952114236
0g$!
#2952118090
1f$!
#2952118141
1g$!
#2952118241
0f$!
#2952122098
0h$!
#2952122259
1f$!
#2952126085
0f$!
#2952126158
0g$!
#2952126190
1f$!
#2952126241
1g$!
#2952126279
0f$!
#2952126293
0g$!
#2952130257
1g$!
#2952130268
1f$!
#2952130319
0g$!
#2952134085
0f$!
#2952134097
1h$!
#2952134188
1g$!
#2952138098
0h$!
#2952142097
1h$!
#2952142236
0g$!
#2952146098
0h$!
#2952146169
1f$!
#2952146220
1g$!
#2952146258
0f$!
#2952150205
0g$!
#2952158088
1g$!
#2952158167
0g$!
#2952162123
1g$!
#2952162155
0g$!
#2952170088
1g$!
#2952170294
1f$!
#2952174090
0g$!
#2952174130
1g$!
#2952178160
0f$!
#2952182152
1f$!
#2952182155
0g$!
#2952182272
0f$!
#2952186088
1g$!
#2952186167
0g$!
#2952194294
1f$!
#2952202160
0f$!
#2952202185
1g$!
#2952210090
0g$!
#2952214088
1g$!
#2952214169
0g$!
#2952214210
1g$!
#2952214244
0g$!
#2952218061
1g$!
#2952218138
1h$!
#2952218203
1f$!
#2952218244
0h$!
#2952218254
0g$!
#2952218298
0f$!
#2952226209
1h$!
#2952226257
1g$!
#2952230214
0h$!
#2952230263
0g$!
#2952234096
1g$!
#2952234244
0g$!
#2952242138
1h$!
#2952242244
0h$!
#2952246061
1g$!
#2952246263
0g$!
#2952250274
1g$!
#2952250327
0g$!
#2952254156
1h$!
#2952254246
1g$!
#2952258093
1f$!
#2952258163
0h$!
#2952258217
0f$!
#2952258249
0g$!
#2952262138
1h$!
#2952262228
1g$!
#2952270063
0g$!
#2952274061
1g$!
#2952274093
1f$!
#2952274244
0h$!
#2952274263
0g$!
#2952274298
0f$!
#2952278117
1h$!
#2952286096
1g$!
#2952286098
0h$!
#2952286227
0g$!
#2952290061
1g$!
#2952290249
0g$!
#2952294096
1g$!
#2952294097
1h$!
#2952294198
0g$!
#2952294226
1g$!
#2952298093
1f$!
#2952298099
0g$!
#2952302298
0f$!
#2952310096
1g$!
#2952310098
0h$!
#2952310244
0g$!
#2952318061
1g$!
#2952318097
1h$!
#2952318203
1f$!
#2952318254
0g$!
#2952318298
0f$!
#2952322098
0h$!
#2952322257
1g$!
#2952322274
1f$!
#2952330088
0f$!
#2952330249
0g$!
#2952334097
1h$!
#2952334203
1f$!
#2952334228
1g$!
#2952334263
0g$!
#2952334298
0f$!
#2952342096
0h$!
#2952342154
1g$!
#2952342197
1h$!
#2952350079
0g$!
#2952350090
1f$!
#2952354062
0f$!
#2952354137
0h$!
#2952358255
1g$!
#2952358292
0g$!
#2952362059
1g$!
#2952362126
1h$!
#2952362142
1f$!
#2952362155
0f$!
#2952362255
0g$!
#2952366109
1g$!
#2952366137
0h$!
#2952366236
0g$!
#2952366389
1g$!
#2952370096
0g$!
#2952370126
1h$!
#2952370253
1g$!
#2952382079
0g$!
#2952382090
1f$!
#2952382137
0h$!
#2952382255
1g$!
#2952394062
0f$!
#2952394096
0g$!
#2952394126
1h$!
#2952394269
1g$!
#2952402079
0g$!
#2952402255
1g$!
#2952406096
0g$!
#2952406138
0h$!
#2952406199
1f$!
#2952406272
0f$!
#2952410088
1g$!
#2952410167
0g$!
#2952414123
1g$!
#2952414155
0g$!
#2952422088
1g$!
#2952422294
1f$!
#2952426090
0g$!
#2952426130
1g$!
#2952430160
0f$!
#2952434152
1f$!
#2952434155
0g$!
#2952434272
0f$!
#2952438088
1g$!
#2952438167
0g$!
#2952446294
1f$!
#2952454160
0f$!
#2952454185
1g$!
#2952462090
0g$!
#2952466088
1g$!
#2952470090
0g$!
#2952470194
1g$!
#2952470209
1f$!
#2952474085
0f$!
#2952474236
0g$!
#2952482130
1g$!
#2952482152
1f$!
#2952486160
0f$!
#2952490155
0g$!
#2952490255
1g$!
#2952494236
0g$!
#2952498255
1g$!
#2952502236
0g$!
#2952506090
1f$!
#2952506130
1g$!
#2952506293
0g$!
#2952510085
0f$!
#2952510185
1g$!
#2952510236
0g$!
#2952522188
1f$!
#2952522249
1g$!
#2952522266
0g$!
#2952530085
0f$!
#2952534090
1f$!
#2952534147
0f$!
#2952534152
1h$!
#2952534294
1f$!
#2952538059
1g$!
#2952538062
0f$!
#2952542079
0g$!
#2952542088
1g$!
#2952546090
0g$!
#2952554098
0h$!
#2952554250
1g$!
#2952554283
0g$!
#2952554294
1f$!
#2952554328
0f$!
#2952554375
1f$!
#2952558088
1g$!
#2952558097
1h$!
#2952562062
0f$!
#2952562090
0g$!
#2952566059
1g$!
#2952574079
0g$!
#2952574088
1g$!
#2952578062
1f$!
#2952578098
0h$!
#2952582062
0f$!
#2952582090
0g$!
#2952582097
1h$!
#2952586059
1g$!
#2952586062
1f$!
#2952586098
0h$!
#2952586126
0g$!
#2952590097
1h$!
#2952594059
1g$!
#2952594062
0f$!
#2952598096
0h$!
#2952598168
0g$!
#2952598195
1h$!
#2952606137
0h$!
#2952610126
1h$!
#2952642137
0h$!
#2952646126
1h$!
#2952662157
0h$!
#2952666130
1g$!
#2952670138
1h$!
#2952670152
1f$!
#2952670155
0g$!
#2952670255
1g$!
#2952674085
0f$!
#2952674236
0g$!
#2952686152
1f$!
#2952686214
0h$!
#2952690085
0f$!
#2952694090
1f$!
#2952694248
1h$!
#2952698085
0f$!
#2952698142
0h$!
#2952702130
1g$!
#2952702374
0g$!
#2952706269
1g$!
#2952710156
1h$!
#2952710293
0g$!
#2952718185
1g$!
#2952718214
0h$!
#2952718236
0g$!
#2952722255
1g$!
#2952726138
1h$!
#2952726145
0g$!
#2952726174
1g$!
#2952726241
0g$!
#2952726244
0h$!
#2952730096
1g$!
#2952730209
1h$!
#2952734062
1f$!
#2952734099
0g$!
#2952734109
1g$!
#2952734214
0h$!
#2952734248
1h$!
#2952738063
0g$!
#2952742059
1g$!
#2952742062
0f$!
#2952742214
0h$!
#2952742248
1h$!
#2952746099
0g$!
#2952750244
0h$!
#2952758062
1f$!
#2952758088
0f$!
#2952762059
1g$!
#2952762209
1h$!
#2952766079
0g$!
#2952770059
1g$!
#2952770163
0h$!
#2952774099
0g$!
#2952774109
1g$!
#2952774138
1h$!
#2952782096
0g$!
#2952782244
0h$!
#2952786109
1g$!
#2952786209
1h$!
#2952790131
0h$!
#2952806063
0g$!
#2952810061
1g$!
#2952814063
0g$!
#2952822061
1g$!
#2952826063
0g$!
#2952842061
1g$!
#2952854121
0g$!
#2952854220
1g$!
#2952858138
1h$!
#2952858210
0g$!
#2952858244
0h$!
#2952862209
1h$!
#2952870214
0h$!
#2952870248
1h$!
#2952874244
0h$!
#2952878248
1h$!
#2952886244
0h$!
#2952890209
1h$!
#2952894141
1g$!
#2952898214
0h$!
#2952902209
1h$!
#2952910158
0g$!
#2952910214
0h$!
#2952918116
1g$!
#2952918117
1h$!
#2952918154
0g$!
#2952918182
1g$!
#2952918226
0g$!
#2952922098
0h$!
#2952930097
1h$!
#2952934098
0h$!
#2952946097
1h$!
#2952970098
0h$!
#2952974097
1h$!
#2952978098
0h$!
#2952982161
1h$!
#2952982202
0h$!
#2952994220
1g$!
#2952994283
0g$!
#2953006141
1g$!
#2953010158
0g$!
#2953014141
1g$!
#2953022158
0g$!
#2953026141
1g$!
#2953038158
0g$!
#2953042141
1g$!
#2953046158
0g$!
#2953046182
1g$!
#2953050244
0g$!
#2953058217
1g$!
#2953062244
0g$!
#2953074226
1g$!
#2953078244
0g$!
#2953086212
1g$!
#2953086316
0g$!
#2953090235
1g$!
#2953098244
0g$!
#2953098290
1g$!
#2953102198
0g$!
#2953102226
1g$!
#2953106244
0g$!
#2953110145
1g$!
#2953126063
0g$!
#2953138061
1g$!
#2953146063
0g$!
#2953150061
1g$!
#2953162063
0g$!
#2953170061
1g$!
#2953174063
0g$!
#2953174156
1h$!
#2953174160
0h$!
#2953174210
1g$!
#2953174227
1h$!
#2953178214
0h$!
#2953182244
0g$!
#2953182290
1g$!
#2953190316
0g$!
#2953194290
1g$!
#2953198138
1h$!
#2953198198
0g$!
#2953202244
0h$!
#2953206226
1g$!
#2953214244
0g$!
#2953218138
1h$!
#2953218244
0h$!
#2953222248
1h$!
#2953230214
0h$!
#2953230226
1g$!
#2953238117
1h$!
#2953238133
0h$!
#2953246079
0g$!
#2953254059
1g$!
#2953270079
0g$!
#2953274059
1g$!
#2953298079
0g$!
#2953302059
1g$!
#2953302154
0g$!
#2953366145
1g$!
#2953366156
1h$!
#2953366227
0g$!
#2953370062
1f$!
#2953370088
0f$!
#2953370137
0h$!
#2953382126
1h$!
#2953390061
1g$!
#2953390137
0h$!
#2953394096
0g$!
#2953394126
1h$!
#2953398137
0h$!
#2953402061
1g$!
#2953406126
1h$!
#2953414063
0g$!
#2953414093
1f$!
#2953418059
1g$!
#2953418062
0f$!
#2953418137
0h$!
#2953422099
0g$!
#2953422126
1h$!
#2953426062
1f$!
#2953426096
1g$!
#2953426137
0h$!
#2953430079
0g$!
#2953430088
0f$!
#2953430126
1h$!
#2953430160
0h$!
#2953430202
1g$!
#2953430227
1h$!
#2953430238
0g$!
#2953434123
1g$!
#2953434158
0g$!
#2953434214
0h$!
#2953434259
1f$!
#2953434272
0f$!
#2953438220
1g$!
#2953442283
0g$!
#2953442323
1f$!
#2953446141
1g$!
#2953446156
1h$!
#2953446230
0f$!
#2953446259
1f$!
#2953446272
0f$!
#2953450158
0g$!
#2953450214
0h$!
#2953454141
1g$!
#2953454286
0g$!
#2953454312
1g$!
#2953454323
1f$!
#2953454328
0f$!
#2953454375
1f$!
#2953458138
1h$!
#2953458158
0g$!
#2953458212
0f$!
#2953458259
1f$!
#2953458272
0f$!
#2953462244
0h$!
#2953466209
1h$!
#2953470088
1g$!
#2953470178
0g$!
#2953470214
0h$!
#2953474123
1g$!
#2953474158
0g$!
#2953478294
1f$!
#2953482220
1g$!
#2953482258
0f$!
#2953486126
0g$!
#2953486138
1h$!
#2953486240
1g$!
#2953486244
0h$!
#2953490090
0g$!
#2953494116
1g$!
#2953494117
1h$!
#2953510293
0g$!
#2953518090
1f$!
#2953518109
1g$!
#2953522098
0h$!
#2953526062
0f$!
#2953526096
0g$!
#2953526097
1h$!
#2953526269
1g$!
#2953530079
0g$!
#2953530098
0h$!
#2953530317
1g$!
#2953538096
0g$!
#2953538097
1h$!
#2953538253
1g$!
#2953542293
0g$!
#2953546098
0h$!
#2953546109
1g$!
#2953550236
0g$!
#2953550338
1g$!
#2953554096
0g$!
#2953554097
1h$!
#2953554253
1g$!
#2953558096
0h$!
#2953558195
1h$!
#2953566079
0g$!
#2953566137
0h$!
#2953566250
1g$!
#2953566283
0g$!
#2953566294
1f$!
#2953566328
0f$!
#2953566375
1f$!
#2953574062
0f$!
#2953574126
1h$!
#2953578137
0h$!
#2953582088
1g$!
#2953582294
1f$!
#2953586062
0f$!
#2953586096
0g$!
#2953586123
1g$!
#2953586126
1h$!
#2953590079
0g$!
#2953590088
1g$!
#2953590137
0h$!
#2953590271
0g$!
#2953594059
1g$!
#2953594126
1h$!
#2953594143
0g$!
#2953594197
1g$!
#2953598062
1f$!
#2953598079
0g$!
#2953598088
1g$!
#2953606062
0f$!
#2953606096
0g$!
#2953606123
1g$!
#2953610079
0g$!
#2953610088
1g$!
#2953610137
0h$!
#2953614096
0g$!
#2953614123
1g$!
#2953614126
1h$!
#2953618126
0g$!
#2953618137
0h$!
#2953622123
1g$!
#2953622126
1h$!
#2953622157
0h$!
#2953622224
1h$!
#2953622244
0h$!
#2953626079
0g$!
#2953626088
1g$!
#2953626209
1h$!
#2953626294
1f$!
#2953630096
0g$!
#2953630123
1g$!
#2953630163
0h$!
#2953638126
0g$!
#2953638138
1h$!
#2953650062
0f$!
#2953650123
1g$!
#2953650244
0h$!
#2953654248
1h$!
#2953658126
0g$!
#2953666244
0h$!
#2953678123
1g$!
#2953690293
0g$!
#2953694062
1f$!
#2953694210
0f$!
#2953698109
1g$!
#2953698156
1h$!
#2953698236
0g$!
#2953702059
1g$!
#2953702214
0h$!
#2953706079
0g$!
#2953706090
1f$!
#2953706213
0f$!
#2953706255
1g$!
#2953706261
1f$!
#2953706292
0g$!
#2953706336
1g$!
#2953710062
0f$!
#2953710096
0g$!
#2953710138
1h$!
#2953710269
1g$!
#2953714244
0h$!
#2953718209
1h$!
#2953722079
0g$!
#2953722214
0h$!
#2953726059
1g$!
#2953730293
0g$!
#2953734269
1g$!
#2953738062
1f$!
#2953738137
0f$!
#2953738138
1h$!
#2953738244
0h$!
#2953746079
0g$!
#2953750059
1g$!
#2953750062
1f$!
#2953750085
0f$!
#2953750101
0g$!
#2953750176
1h$!
#2953754061
1g$!
#2953754259
1f$!
#2953758063
0g$!
#2953758088
0f$!
#2953758137
0h$!
#2953758220
1g$!
#2953762126
1h$!
#2953762218
0g$!
#2953762257
1g$!
#2953766137
0h$!
#2953766245
1f$!
#2953766330
0f$!
#2953766358
0g$!
#2953770126
1h$!
#2953770257
1g$!
#2953770268
1f$!
#2953774088
0f$!
#2953774099
0g$!
#2953774137
0h$!
#2953778312
1g$!
#2953778349
0g$!
#2953782093
1f$!
#2953782126
1h$!
#2953782188
1g$!
#2953782212
0f$!
#2953782259
1f$!
#2953786063
0g$!
#2953786137
0h$!
#2953786220
1g$!
#2953786258
0f$!
#2953790126
1h$!
#2953790210
0g$!
#2953794137
0h$!
#2953802061
1g$!
#2953802178
0g$!
#2953802259
1f$!
#2953810126
1h$!
#2953810188
1g$!
#2953814063
0g$!
#2953814088
0f$!
#2953814116
1g$!
#2953814137
0h$!
#2953814154
0g$!
#2953814182
1g$!
#2953814226
0g$!
#2953878190
1g$!
#2953886079
0g$!
#2953890059
1g$!
#2953894079
0g$!
#2953898059
1g$!
#2953902079
0g$!
#2953906059
1g$!
#2953914079
0g$!
#2953922059
1g$!
#2953942101
0g$!
#2953942155
1h$!
#2953946141
1g$!
#2953954098
0h$!
#2953954158
0g$!
#2953958097
1h$!
#2953958141
1g$!
#2953966098
0h$!
#2953970097
1h$!
#2953970158
0g$!
#2953974141
1g$!
#2953982098
0h$!
#2953982158
0g$!
#2953986097
1h$!
#2953990141
1g$!
#2953994158
0g$!
#2954006096
0h$!
#2954006116
1g$!
#2954006185
0g$!
#2954006197
1h$!
#2954010088
1g$!
#2954010137
0h$!
#2954014126
1h$!
#2954014167
0g$!
#2954014236
1g$!
#2954014268
0g$!
#2954018137
0h$!
#2954018185
1g$!
#2954022126
1h$!
#2954026090
0g$!
#2954026137
0h$!
#2954026294
1f$!
#2954030130
1g$!
#2954030160
0f$!
#2954030288
0g$!
#2954030316
1g$!
#2954034126
1h$!
#2954034152
1f$!
#2954034155
0g$!
#2954034272
0f$!
#2954038088
1g$!
#2954038137
0h$!
#2954042126
1h$!
#2954042167
0g$!
#2954042294
1f$!
#2954046137
0h$!
#2954046272
0f$!
#2954054123
1g$!
#2954054155
0g$!
#2954062126
1h$!
#2954066294
1f$!
#2954070137
0h$!
#2954070147
0f$!
#2954070201
1g$!
#2954070213
1f$!
#2954070258
0f$!
#2954070288
0g$!
#2954070316
1g$!
#2954074138
1h$!
#2954074164
0g$!
#2954074244
0h$!
#2954078088
1g$!
#2954078178
0g$!
#2954078248
1h$!
#2954082123
1g$!
#2954082142
0h$!
#2954082288
0g$!
#2954082316
1g$!
#2954086156
1h$!
#2954086228
0g$!
#2954086257
1g$!
#2954086320
1f$!
#2954094126
0g$!
#2954094241
0f$!
#2954098188
1g$!
#2954098214
0h$!
#2954098248
1h$!
#2954098294
1f$!
#2954102090
0g$!
#2954102244
0h$!
#2954102272
0f$!
#2954106088
1g$!
#2954106248
1h$!
#2954114294
1f$!
#2954118241
0f$!
#2954130090
0g$!
#2954130244
0h$!
#2954130259
1f$!
#2954130272
0f$!
#2954134117
1h$!
#2954134150
0h$!
#2954134173
1h$!
#2954146137
0h$!
#2954146317
1g$!
#2954150126
1h$!
#2954150266
0g$!
#2954154137
0h$!
#2954154255
1g$!
#2954158126
1h$!
#2954162236
0g$!
#2954170137
0h$!
#2954170255
1g$!
#2954174126
1h$!
#2954182137
0h$!
#2954182236
0g$!
#2954190126
1h$!
#2954190255
1g$!
#2954194236
0g$!
#2954202137
0h$!
#2954202141
1g$!
#2954206158
0g$!
#2954206292
1g$!
#2954214283
0g$!
#2954226126
1h$!
#2954230141
1g$!
#2954234137
0h$!
#2954234158
0g$!
#2954238126
1h$!
#2954238141
1g$!
#2954246137
0h$!
#2954246307
0g$!
#2954250126
1h$!
#2954262126
0h$!
#2954262182
1g$!
#2954266227
0g$!
#2954274191
1g$!
#2954274316
0g$!
#2954290226
1g$!
#2954294244
0g$!
#2954318226
1g$!
#2954326195
1h$!
#2954330079
0g$!
#2954330088
1g$!
#2954330137
0h$!
#2954334090
0g$!
#2954334250
1g$!
#2954338126
1h$!
#2954338228
0g$!
#2954346062
1f$!
#2954346088
1g$!
#2954346272
0f$!
#2954350096
0g$!
#2954350137
0h$!
#2954354123
1g$!
#2954354126
1h$!
#2954358126
0g$!
#2954358137
0h$!
#2954370062
1f$!
#2954382062
0f$!
#2954382123
1g$!
#2954382126
1h$!
#2954386079
0g$!
#2954390059
1g$!
#2954390126
0g$!
#2954390131
1g$!
#2954390137
0h$!
#2954390145
0g$!
#2954394156
1h$!
#2954394249
1g$!
#2954394284
0g$!
#2954398214
0h$!
#2954398255
1g$!
#2954402209
1h$!
#2954402236
0g$!
#2954410163
0h$!
#2954414138
1h$!
#2954414244
0h$!
#2954422197
1h$!
#2954426059
1g$!
#2954426137
0h$!
#2954430079
0g$!
#2954430126
1h$!
#2954442059
1g$!
#2954442137
0h$!
#2954446126
1h$!
#2954454157
0h$!
#2954454293
0g$!
#2954466248
1h$!
#2954470269
1g$!
#2954474244
0h$!
#2954486211
0g$!
#2954490109
1g$!
#2954490126
1h$!
#2954490218
0g$!
#2954490230
1g$!
#2954490320
1f$!
#2954494062
0f$!
#2954494096
0g$!
#2954494123
1g$!
#2954498079
0g$!
#2954498088
1g$!
#2954498137
0h$!
#2954506096
0g$!
#2954506123
1g$!
#2954506126
1h$!
#2954510079
0g$!
#2954510137
0h$!
#2954514059
1g$!
#2954514126
1h$!
#2954518079
0g$!
#2954518157
0h$!
#2954546088
1g$!
#2954550145
0g$!
#2954550186
1g$!
#2954550293
0g$!
#2954554062
1f$!
#2954554210
0f$!
#2954554269
1g$!
#2954562079
0g$!
#2954562090
1f$!
#2954562255
1g$!
#2954566236
0g$!
#2954574059
1g$!
#2954574062
0f$!
#2954574126
1h$!
#2954578079
0g$!
#2954578090
1f$!
#2954578255
1g$!
#2954582097
0f$!
#2954582138
0h$!
#2954582145
0g$!
#2954582174
1g$!
#2954582238
0g$!
#2954590096
1g$!
#2954590158
0g$!
#2954594097
1h$!
#2954598061
1g$!
#2954598098
0h$!
#2954598178
0g$!
#2954606093
1f$!
#2954606097
1h$!
#2954606188
1g$!
#2954614063
0g$!
#2954614096
0h$!
#2954614141
1g$!
#2954614148
0f$!
#2954614286
0g$!
#2954622138
1h$!
#2954626244
0h$!
#2954638141
1g$!
#2954638248
1h$!
#2954642142
0h$!
#2954642358
0g$!
#2954646145
1g$!
#2954646146
0g$!
#2954646156
1h$!
#2954646173
1g$!
#2954646186
0g$!
#2954646199
0h$!
#2954646257
1g$!
#2954650126
0g$!
#2954650188
1g$!
#2954650294
1f$!
#2954650329
0g$!
#2954650330
0f$!
#2954654123
1g$!
#2954654210
0g$!
#2954658141
1g$!
#2954662126
0g$!
#2954662388
1g$!
#2954666090
0g$!
#2954666250
1f$!
#2954666256
0f$!
#2954670088
1g$!
#2954678153
0g$!
#2954678196
1g$!
#2954678226
0g$!
#2954698126
1h$!
#2954706137
0h$!
#2954710126
1h$!
#2954710157
0h$!
#2954710226
1g$!
#2954714227
0g$!
#2954722212
1g$!
#2954726198
0g$!
#2954730191
1g$!
#2954730316
0g$!
#2954734217
1g$!
#2954738244
0g$!
#2954738290
1g$!
#2954742200
0g$!
#2954742229
1g$!
#2954742236
0g$!
#2954742242
1h$!
#2954742244
0h$!
#2954750255
1g$!
#2954758248
1h$!
#2954762236
0g$!
#2954766244
0h$!
#2954774182
1g$!
#2954774226
0g$!
#2954782209
1h$!
#2954794214
0h$!
#2954798209
1h$!
#2954806162
1g$!
#2954806241
1f$!
#2954826090
0g$!
#2954826214
0h$!
#2954826272
0f$!
#2954830088
1g$!
#2954830257
0g$!
#2954834123
1g$!
#2954834218
0g$!
#2954838116
1g$!
#2954838124
1f$!
#2954838144
0f$!
#2954838156
1h$!
#2954846163
0h$!
#2954850138
1h$!
#2954850244
0h$!
#2954854079
0g$!
#2954858059
1g$!
#2954858138
1h$!
#2954858244
0h$!
#2954866138
1h$!
#2954866244
0h$!
#2954870154
0g$!
#2954870195
1h$!
#2954882137
0h$!
#2954886126
1h$!
#2954902138
0h$!
#2954910061
1g$!
#2954934227
0g$!
#2954942093
1f$!
#2954942109
1g$!
#2954946088
0f$!
#2954954096
0g$!
#2954954097
1h$!
#2954958062
1f$!
#2954958096
1g$!
#2954958098
0h$!
#2954966062
0f$!
#2954966099
0g$!
#2954966156
1h$!
#2954966180
0h$!
#2954966195
1h$!
#2954974096
1g$!
#2954978093
1f$!
#2954978099
0g$!
#2954978109
1g$!
#2954978137
0h$!
#2954982063
0g$!
#2954982088
0f$!
#2954986061
1g$!
#2954986096
0g$!
#2954986126
1h$!
#2954998062
1f$!
#2955006059
1g$!
#2955006062
0f$!
#2955006137
0h$!
#2955010099
0g$!
#2955010126
1h$!
#2955026062
1f$!
#2955026109
1g$!
#2955030088
0f$!
#2955030138
0h$!
#2955030146
0g$!
#2955030294
1f$!
#2955034088
1g$!
#2955038062
0f$!
#2955042096
0g$!
#2955046062
1f$!
#2955046272
0f$!
#2955050059
1g$!
#2955062156
1h$!
#2955062157
0h$!
#2955066079
0g$!
#2955070059
1g$!
#2955070209
1h$!
#2955078214
0h$!
#2955078248
1h$!
#2955082244
0h$!
#2955094079
0g$!
#2955094210
1g$!
#2955094316
0g$!
#2955102226
1g$!
#2955106227
0g$!
#2955114226
1g$!
#2955126200
0g$!
#2955126229
1g$!
#2955138236
0g$!
#2955154317
1g$!
#2955154339
0g$!
#2955158182
1g$!
#2955158226
0g$!
#2955222145
1g$!
#2955222224
1h$!
#2955230214
0h$!
#2955230248
1h$!
#2955238142
0h$!
#2955246138
1h$!
#2955246244
0h$!
#2955254121
0g$!
#2955286155
1h$!
#2955286162
1g$!
#2955286266
0g$!
#2955290098
0h$!
#2955290188
1g$!
#2955306097
1h$!
#2955306236
0g$!
#2955310090
1f$!
#2955310098
0h$!
#2955310141
1g$!
#2955310213
0f$!
#2955310286
0g$!
#2955310317
1g$!
#2955314228
0g$!
#2955318116
1g$!
#2955318161
1h$!
#2955318182
0h$!
#2955318197
1h$!
#2955318207
1f$!
#2955326062
0f$!
#2955326099
0g$!
#2955326137
0h$!
#2955330096
1g$!
#2955334062
1f$!
#2955334088
0f$!
#2955338099
0g$!
#2955338126
1h$!
#2955342137
0h$!
#2955346062
1f$!
#2955350097
0f$!
#2955350184
1g$!
#2955350213
1f$!
#2955350228
0f$!
#2955350244
0g$!
#2955358255
1g$!
#2955362236
0g$!
#2955378255
1g$!
#2955382145
0g$!
#2955390226
1g$!
#2955398227
0g$!
#2955406226
1g$!
#2955410244
0g$!
#2955422138
1h$!
#2955422244
0h$!
#2955426209
1h$!
#2955430214
0h$!
#2955430248
1h$!
#2955434244
0h$!
#2955442209
1h$!
#2955446145
1g$!
#2955446163
0h$!
#2955450063
0g$!
#2955454061
1g$!
#2955454126
1h$!
#2955474063
0g$!
#2955474137
0h$!
#2955510145
1g$!
#2955510146
0g$!
#2955510162
1g$!
#2955510168
0g$!
#2955510181
1g$!
#2955510199
1f$!
#2955510224
1h$!
#2955514160
0f$!
#2955522152
1f$!
#2955522155
0g$!
#2955522214
0h$!
#2955522248
1h$!
#2955522272
0f$!
#2955526142
0h$!
#2955530088
1g$!
#2955530138
1h$!
#2955530152
1f$!
#2955530167
0g$!
#2955530275
0f$!
#2955530302
1f$!
#2955534123
1g$!
#2955534155
0g$!
#2955534244
0h$!
#2955534272
0f$!
#2955538088
1g$!
#2955538167
0g$!
#2955538209
1h$!
#2955542123
1g$!
#2955542154
0g$!
#2955542204
1g$!
#2955542214
0h$!
#2955542248
1h$!
#2955550079
0g$!
#2955550142
0h$!
#2955558059
1g$!
#2955558138
1h$!
#2955562142
0h$!
#2955566138
1h$!
#2955566244
0h$!
#2955570248
1h$!
#2955574101
0g$!
#2955574153
0h$!
#2955578126
1h$!
#2955582061
1g$!
#2955582137
0h$!
#2955582178
0g$!
#2955590093
1f$!
#2955590126
1h$!
#2955590188
1g$!
#2955590241
0f$!
#2955594259
1f$!
#2955598137
0h$!
#2955602126
1h$!
#2955602241
0f$!
#2955606063
0g$!
#2955606141
1g$!
#2955606150
0h$!
#2955606320
1f$!
#2955606339
0g$!
#2955610123
1g$!
#2955610155
0g$!
#2955610160
0f$!
#2955614271
1g$!
#2955618167
0g$!
#2955618316
1g$!
#2955622152
1f$!
#2955626155
0g$!
#2955626272
0f$!
#2955630088
1g$!
#2955630167
0g$!
#2955638123
1g$!
#2955638145
0g$!
#2955638173
1h$!
#2955646137
0h$!
#2955646226
1g$!
#2955650244
0g$!
#2955658126
1h$!
#2955658226
1g$!
#2955662227
0g$!
#2955666137
0h$!
#2955666226
1g$!
#2955670200
0g$!
#2955670242
1h$!
#2955674090
1f$!
#2955674141
1g$!
#2955674142
0h$!
#2955674213
0f$!
#2955674286
0g$!
#2955674312
1g$!
#2955674323
1f$!
#2955674355
0g$!
#2955674372
1g$!
#2955678085
0f$!
#2955678138
1h$!
#2955678158
0g$!
#2955678244
0h$!
#2955682090
1f$!
#2955682141
1g$!
#2955682209
1h$!
#2955682241
0f$!
#2955686158
0g$!
#2955686214
0h$!
#2955686248
1h$!
#2955690090
1f$!
#2955690141
1g$!
#2955690142
0h$!
#2955690213
0f$!
#2955690286
0g$!
#2955690312
1g$!
#2955690323
1f$!
#2955690355
0g$!
#2955690372
1g$!
#2955694085
0f$!
#2955694138
1h$!
#2955694158
0g$!
#2955694244
0h$!
#2955698169
1f$!
#2955698220
1g$!
#2955698258
0f$!
#2955698293
0g$!
#2955702178
1g$!
#2955702212
0g$!
#2955702240
1g$!
#2955706096
0g$!
#2955710096
1g$!
#2955714079
0g$!
#2955718061
1g$!
#2955718096
0g$!
#2955722109
1g$!
#2955726096
0g$!
#2955730096
1g$!
#2955734062
1f$!
#2955734088
0f$!
#2955734154
0g$!
#2955734156
1h$!
#2955738137
0h$!
#2955742061
1g$!
#2955742126
1h$!
#2955750137
0h$!
#2955754126
1h$!
#2955758063
0g$!
#2955758137
0h$!
#2955762126
1h$!
#2955766157
0h$!
#2955766214
1f$!
#2955770061
1g$!
#2955770263
0g$!
#2955770268
0f$!
#2955778274
1f$!
#2955782088
0f$!
#2955782096
1g$!
#2955786099
0g$!
#2955790274
1g$!
#2955794272
0g$!
#2955798093
1f$!
#2955798096
1g$!
#2955798173
0f$!
#2955798199
0g$!
#2955798202
1g$!
#2955798339
0g$!
#2955802123
1g$!
#2955802126
1h$!
#2955802155
0g$!
#2955806088
1g$!
#2955806167
0g$!
#2955810123
1g$!
#2955810137
0h$!
#2955810155
0g$!
#2955814088
1g$!
#2955814167
0g$!
#2955818123
1g$!
#2955818126
1h$!
#2955818155
0g$!
#2955822088
1g$!
#2955822137
0h$!
#2955826126
1h$!
#2955826203
0g$!
#2955826230
1g$!
#2955830160
0h$!
#2955830169
0g$!
#2955834248
1h$!
#2955838061
1g$!
#2955842063
0g$!
#2955842093
1f$!
#2955842226
1g$!
#2955846163
0h$!
#2955846217
0f$!
#2955846265
0g$!
#2955850061
1g$!
#2955850156
1h$!
#2955850221
1f$!
#2955850272
0g$!
#2955854214
0h$!
#2955854268
0f$!
#2955858096
1g$!
#2955858209
1h$!
#2955858274
1f$!
#2955862131
0h$!
#2955862148
0f$!
#2955862226
0g$!
#2955866097
1h$!
#2955870098
0h$!
#2955874097
1h$!
#2955878098
0h$!
#2955886097
1h$!
#2955894096
0h$!
#2955894162
1g$!
#2955894209
1h$!
#2955894218
0g$!
#2955894269
1g$!
#2955898214
0h$!
#2955902155
0g$!
#2955902248
1h$!
#2955906130
1g$!
#2955906293
0g$!
#2955910185
1g$!
#2955914214
0h$!
#2955914236
0g$!
#2955918209
1h$!
#2955918255
1g$!
#2955926145
0g$!
#2955926163
0h$!
#2955926222
1g$!
#2955926234
1f$!
#2955926279
0f$!
#2955926307
0g$!
#2955930061
1g$!
#2955930276
0g$!
#2955934188
1g$!
#2955938063
0g$!
#2955938141
1g$!
#2955938259
1f$!
#2955946099
0g$!
#2955946188
1g$!
#2955954257
0g$!
#2955954258
0f$!
#2955958096
1g$!
#2955958241
1h$!
#2955958302
1f$!
