custom-tests/test-cases/udp_mux2/ans.vcd
$date
	Sat Mar 21 06:15:00 2020
$end
$version
	vzt2vcd
$end
$timescale 1ps $end
$scope module tbench_NV_NVDLA_partition_m $end
$scope module u_partition_ma $end
$var wire 1 A i0 $end
$var wire 1 B i1 $end
$var wire 1 C s $end
$var wire 1 D z $end
$upscope $end
$upscope $end
$enddefinitions $end
$dumpvars
#0
xA
xB
xC
xD
#100
0A
0B
0C
#111
0D
#200
1A
#211
1D
#300
0A
1B
#311
0D
#400
1A
#411
1D
#500
0A
0B
1C
#511
0D
#600
1A
#700
0A
1B
#711
1D
#800
1A
#900
0A
0B
xC
#911
0D
#1000
1A
#1011
xD
#1100
0A
1B
#1200
1A
#1211
1D
