custom-tests/test-cases/and2_long/ans.vcd
$date
	Sat Mar 21 06:15:00 2020
$end
$version
	vzt2vcd
$end
$timescale 1ps $end
$scope module tbench_NV_NVDLA_partition_m $end
$scope module u_partition_ma $end
$var wire 1 A i1 $end
$var wire 1 B i2 $end
$var wire 1 C o1 $end
$upscope $end
$upscope $end
$enddefinitions $end
$dumpvars
#0
xA
xB
xC
#100
1A
1B
#111
1C
#200
0B
#213
0C
#300
1B
#313
1C
#400
0B
#413
0C
#500
1B
#513
1C
#600
0B
#613
0C
#700
1B
#713
1C
#800
0B
#813
0C
#900
1B
#913
1C
#1000
0B
#1013
0C
#1100
1B
#1113
1C
#1200
0B
#1213
0C
#1300
1B
#1313
1C
#1400
0B
#1413
0C
#1500
1B
#1513
1C
#1600
0B
#1613
0C
#1700
1B
#1713
1C
#1800
0B
#1813
0C
