custom-tests/test-cases/nor_assign_constant_input/ans.vcd
$date
	Sat Mar 21 06:15:00 2020
$end
$version
	vzt2vcd
$end
$timescale 1ps $end
$scope module tbench_NV_NVDLA_partition_m $end
$scope module u_partition_ma $end
$var wire 1 A i1 $end
$var wire 1 B o1 $end
$var wire 1 C w $end
$upscope $end
$upscope $end
$enddefinitions $end
$dumpvars
#0
xA
xB
0C
#100
1A
#111
0B
#200
0A
#211
1B
#300
1A
#311
0B
#400
0A
#411
1B
