custom-tests/test-cases/and2_vector_input/input.vcd
$date
	Sat Mar 21 06:15:00 2020
$end
$version
	vzt2vcd
$end
$timescale 1ps $end
$scope module tbench_NV_NVDLA_partition_m $end
$scope module u_partition_ma $end
$var wire 2 A i [1:0] $end
$upscope $end
$upscope $end
$enddefinitions $end
$dumpvars
#0
bx A
#100
b11 A
#200
b10 A
#300
b0 A
#400
b1 A
#500
bz1 A
#600
bz A
#700
bx A
#800
b0x A
